codes/CPU.vcd
$date
	Sun Dec 13 18:25:07 2020
$end
$version
	Icarus Verilog
$end
$timescale
	1s
$end
$scope module TestBench $end
$var reg 1 ! Clk $end
$var reg 1 " Reset $end
$var reg 1 # Start $end
$var integer 32 $ counter [31:0] $end
$var integer 32 % flush [31:0] $end
$var integer 32 & i [31:0] $end
$var integer 32 ' outfile [31:0] $end
$var integer 32 ( stall [31:0] $end
$scope module CPU $end
$var wire 1 ) Zero $end
$var wire 1 ! clk_i $end
$var wire 1 " rst_i $end
$var wire 1 # start_i $end
$var wire 32 * write_register [31:0] $end
$var wire 32 + read_data2_MEM [31:0] $end
$var wire 32 , read_data2_EX [31:0] $end
$var wire 32 - read_data2 [31:0] $end
$var wire 32 . read_data1_EX [31:0] $end
$var wire 32 / read_data1 [31:0] $end
$var wire 32 0 new_address [31:0] $end
$var wire 32 1 mux_wire [31:0] $end
$var wire 32 2 ins_WB [31:0] $end
$var wire 32 3 ins_MEM [31:0] $end
$var wire 32 4 ins_ID [31:0] $end
$var wire 32 5 ins_EX [31:0] $end
$var wire 32 6 ins [31:0] $end
$var wire 32 7 imm_gen_wire_EX [31:0] $end
$var wire 32 8 imm_gen_wire [31:0] $end
$var wire 32 9 data_memory_output_WB [31:0] $end
$var wire 32 : data_memory_output [31:0] $end
$var wire 32 ; branch_address [31:0] $end
$var wire 32 < address_ID [31:0] $end
$var wire 32 = address [31:0] $end
$var wire 1 > Stall $end
$var wire 1 ? RegWrite_WB $end
$var wire 1 @ RegWrite_MEM $end
$var wire 1 A RegWrite_EX $end
$var wire 1 B RegWrite $end
$var wire 1 C RS1eqRS2 $end
$var wire 1 D PCWrite $end
$var wire 32 E PCSrc_address [31:0] $end
$var wire 1 F NoOp $end
$var wire 1 G MemtoReg_WB $end
$var wire 1 H MemtoReg_MEM $end
$var wire 1 I MemtoReg_EX $end
$var wire 1 J MemtoReg $end
$var wire 1 K MemWrite_MEM $end
$var wire 1 L MemWrite_EX $end
$var wire 1 M MemWrite $end
$var wire 1 N MemRead_MEM $end
$var wire 1 O MemRead_EX $end
$var wire 1 P MemRead $end
$var wire 32 Q MUX_ForwardB_out [31:0] $end
$var wire 32 R MUX_ForwardA_out [31:0] $end
$var wire 2 S Forward_B [1:0] $end
$var wire 2 T Forward_A [1:0] $end
$var wire 1 U Flush $end
$var wire 1 V Branch $end
$var wire 32 W ALU_result_WB [31:0] $end
$var wire 32 X ALU_result_MEM [31:0] $end
$var wire 32 Y ALU_result [31:0] $end
$var wire 3 Z ALU_control_wire [2:0] $end
$var wire 1 [ ALUSrc_EX $end
$var wire 1 \ ALUSrc $end
$var wire 2 ] ALUOp_EX [1:0] $end
$var wire 2 ^ ALUOp [1:0] $end
$scope module ALU $end
$var wire 1 ) Zero_o $end
$var wire 32 _ data_o [31:0] $end
$var wire 32 ` data2_i [31:0] $end
$var wire 32 a data1_i [31:0] $end
$var wire 3 b ALUCtrl_i [2:0] $end
$var reg 32 c tmp [31:0] $end
$upscope $end
$scope module ALU_Control $end
$var wire 2 d ALUOp_i [1:0] $end
$var wire 10 e funct_i [9:0] $end
$var reg 3 f ALUCtrl_o [2:0] $end
$upscope $end
$scope module AND_Branch_Equality $end
$var wire 1 U data_o $end
$var wire 1 C data2_i $end
$var wire 1 V data1_i $end
$upscope $end
$scope module Add_PC $end
$var wire 32 g data2_in [31:0] $end
$var wire 32 h data_o [31:0] $end
$var wire 32 i data1_in [31:0] $end
$upscope $end
$scope module Add_PC_Imm $end
$var wire 32 j data1_in [31:0] $end
$var wire 32 k data_o [31:0] $end
$var wire 32 l data2_in [31:0] $end
$upscope $end
$scope module Control $end
$var wire 7 m Op_i [6:0] $end
$var wire 1 F NoOp_i $end
$var reg 2 n ALUOp_o [1:0] $end
$var reg 1 \ ALUSrc_o $end
$var reg 1 V Branch_o $end
$var reg 1 P MemRead_o $end
$var reg 1 M MemWrite_o $end
$var reg 1 J MemtoReg_o $end
$var reg 1 B RegWrite_o $end
$upscope $end
$scope module Data_Memory $end
$var wire 1 N MemRead_i $end
$var wire 1 K MemWrite_i $end
$var wire 32 o addr_i [31:0] $end
$var wire 1 ! clk_i $end
$var wire 32 p data_i [31:0] $end
$var wire 32 q data_o [31:0] $end
$upscope $end
$scope module EX_MEM $end
$var wire 1 ! clk_i $end
$var wire 100 r data_i [99:0] $end
$var wire 1 s flush_i $end
$var wire 32 t pc_i [31:0] $end
$var wire 1 u stall_i $end
$var wire 1 # start_i $end
$var reg 100 v data_o [99:0] $end
$var reg 32 w pc_o [31:0] $end
$upscope $end
$scope module Equality_Compare $end
$var wire 1 C result_o $end
$var wire 32 x data2_i [31:0] $end
$var wire 32 y data1_i [31:0] $end
$upscope $end
$scope module Forwarding_Unit $end
$var wire 5 z EX_rs1_i [4:0] $end
$var wire 5 { EX_rs2_i [4:0] $end
$var wire 5 | MEM_Rd_i [4:0] $end
$var wire 1 @ MEM_RegWrite_i $end
$var wire 5 } WB_Rd_i [4:0] $end
$var wire 1 ? WB_RegWrite_i $end
$var wire 1 ! clk_i $end
$var reg 2 ~ ForwardA_o [1:0] $end
$var reg 2 !" ForwardB_o [1:0] $end
$upscope $end
$scope module Hazard_Detection $end
$var wire 1 O MemRead_EX_i $end
$var wire 5 "" RDaddr_EX_i [4:0] $end
$var wire 5 #" RS1addr_ID_i [4:0] $end
$var wire 5 $" RS2addr_ID_i [4:0] $end
$var wire 1 A RegWrite_EX_i $end
$var reg 1 F NoOp_o $end
$var reg 1 D PCWrite_o $end
$var reg 1 > Stall_o $end
$upscope $end
$scope module ID_EX $end
$var wire 1 ! clk_i $end
$var wire 135 %" data_i [134:0] $end
$var wire 1 &" flush_i $end
$var wire 32 '" pc_i [31:0] $end
$var wire 1 (" stall_i $end
$var wire 1 # start_i $end
$var reg 135 )" data_o [134:0] $end
$var reg 32 *" pc_o [31:0] $end
$upscope $end
$scope module IF_ID $end
$var wire 1 ! clk_i $end
$var wire 1 U flush_i $end
$var wire 1 > stall_i $end
$var wire 1 # start_i $end
$var wire 32 +" pc_i [31:0] $end
$var wire 32 ," data_i [31:0] $end
$var reg 32 -" data_o [31:0] $end
$var reg 32 ." pc_o [31:0] $end
$upscope $end
$scope module Imm_Gen $end
$var wire 32 /" data_i [31:0] $end
$var reg 32 0" data_o [31:0] $end
$upscope $end
$scope module Instruction_Memory $end
$var wire 32 1" instr_o [31:0] $end
$var wire 32 2" addr_i [31:0] $end
$upscope $end
$scope module MEM_WB $end
$var wire 1 ! clk_i $end
$var wire 98 3" data_i [97:0] $end
$var wire 1 4" flush_i $end
$var wire 32 5" pc_i [31:0] $end
$var wire 1 6" stall_i $end
$var wire 1 # start_i $end
$var reg 98 7" data_o [97:0] $end
$var reg 32 8" pc_o [31:0] $end
$upscope $end
$scope module MUX_ALUSrc $end
$var wire 32 9" data2_i [31:0] $end
$var wire 1 [ select_i $end
$var wire 32 :" data_o [31:0] $end
$var wire 32 ;" data1_i [31:0] $end
$upscope $end
$scope module MUX_ForwardA $end
$var wire 2 <" Forward_i [1:0] $end
$var wire 32 =" data00_i [31:0] $end
$var wire 32 >" data10_i [31:0] $end
$var wire 32 ?" data01_i [31:0] $end
$var reg 32 @" data_o [31:0] $end
$upscope $end
$scope module MUX_ForwardB $end
$var wire 2 A" Forward_i [1:0] $end
$var wire 32 B" data00_i [31:0] $end
$var wire 32 C" data10_i [31:0] $end
$var wire 32 D" data01_i [31:0] $end
$var reg 32 E" data_o [31:0] $end
$upscope $end
$scope module MUX_PCSrc $end
$var wire 32 F" data1_i [31:0] $end
$var wire 32 G" data2_i [31:0] $end
$var wire 1 U select_i $end
$var wire 32 H" data_o [31:0] $end
$upscope $end
$scope module PC $end
$var wire 1 D PCWrite_i $end
$var wire 1 ! clk_i $end
$var wire 32 I" pc_i [31:0] $end
$var wire 1 " rst_i $end
$var wire 1 # start_i $end
$var reg 32 J" pc_o [31:0] $end
$upscope $end
$scope module REG_WRISrc $end
$var wire 32 K" data1_i [31:0] $end
$var wire 32 L" data2_i [31:0] $end
$var wire 1 G select_i $end
$var wire 32 M" data_o [31:0] $end
$upscope $end
$scope module Registers $end
$var wire 5 N" RDaddr_i [4:0] $end
$var wire 32 O" RDdata_i [31:0] $end
$var wire 5 P" RS1addr_i [4:0] $end
$var wire 5 Q" RS2addr_i [4:0] $end
$var wire 1 ? RegWrite_i $end
$var wire 1 ! clk_i $end
$var wire 32 R" RS2data_o [31:0] $end
$var wire 32 S" RS1data_o [31:0] $end
$upscope $end
$upscope $end
$upscope $end
$enddefinitions $end
#0
$dumpvars
bx S"
bx R"
bx Q"
bx P"
b0 O"
b0 N"
b0 M"
bx L"
b0 K"
b0 J"
b100 I"
b100 H"
bx G"
b100 F"
bx E"
b0 D"
bx C"
bx B"
b0 A"
bx @"
b0 ?"
bx >"
bx ="
b0 <"
bx ;"
bx :"
b0 9"
bx 8"
b0xxxxxxxxxxxxxxxxxxxxxxxxxxxxxxxx00000000000000000000000000000000 7"
x6"
bx 5"
x4"
b0xxxxxxxxxxxxxxxxxxxxxxxxxxxxxxxx0000000000000000000000000000000000000000000000000000000000000000 3"
b0 2"
b11000000000010100010011 1"
bx 0"
bx /"
bx ."
bx -"
b11000000000010100010011 ,"
b0 +"
bx *"
bx0000000000000000000000000000000000000000000000000000000000000000 )"
x("
bx '"
x&"
b1000100xxxxxxxxxxxxxxxxxxxxxxxxxxxxxxxxxxxxxxxxxxxxxxxxxxxxxxxxxxxxxxxxxxxxxxxxxxxxxxxxxxxxxxxxxxxxxxxxxxxxxxxxxxxxxxxxxxxxxxxxxxxxxxxx %"
bx $"
bx #"
b0 ""
b0 !"
b0 ~
b0 }
b0 |
b0 {
b0 z
bx y
bx x
bx w
b0xxxxxxxxxxxxxxxxxxxxxxxxxxxxxxxxxxxxxxxxxxxxxxxxxxxxxxxxxxxxxxxx00000000000000000000000000000000 v
xu
bx t
xs
bx00000000000000000000000000000000 r
b0 q
bx p
bx o
b10 n
bx m
bx l
bx k
bx0 j
b0 i
b100 h
b100 g
bx f
b0 e
bx d
bx c
bx b
bx a
bx `
bx _
b10 ^
bx ]
0\
x[
bx Z
bx Y
bx X
b0 W
0V
0U
b0 T
b0 S
bx R
bx Q
0P
xO
0N
0M
xL
0K
0J
xI
0H
0G
0F
b100 E
1D
xC
1B
xA
0@
0?
0>
b0 =
bx <
bx ;
b0 :
bx 9
bx 8
b0 7
b11000000000010100010011 6
b0 5
bx 4
b0 3
b0 2
bx 1
b100 0
bx /
bx .
bx -
bx ,
bx +
b0 *
z)
b0 (
b11 '
b100000 &
b0 %
b0 $
0#
1"
1!
$end
#12
1C
b0 Y
b0 _
b0 c
b0 j
b0 -
b0 x
b0 R"
b0 /
b0 y
b0 S"
b0 1
b0 `
b0 :"
b0 R
b0 a
b0 @"
b0 Q
b0 ;"
b0 E"
b0 8
b0 0"
b0 $"
b0 #"
b0 Q"
b0 P"
b0 m
b0 ,
b0 B"
b0 .
b0 ="
0[
b0 ]
b0 d
0L
0O
0I
b0 r
0A
b0 +
b0 p
b0 3"
b0 X
b0 o
b0 >"
b0 C"
b0 9
b0 L"
b100010000000000000000000000000000000000000000000000000000000000000000000000000000000000000000000000000000000000000000000000000000000000 %"
b0 4
b0 -"
b0 /"
b0 )"
b0 v
b0 7"
1#
0"
#25
0!
#50
b11 Z
b11 b
b11 f
b1100 j
1\
b11 ^
b11 n
b10 ]
b10 d
b1000000000000000000000000000000000000000000000000000000000000000000000000000000000000000000000000000 r
1A
b110 8
b110 0"
b110 $"
b110 Q"
b10011 m
b100000000010110010011 6
b100000000010110010011 ,"
b100000000010110010011 1"
b1000 E
b1000 H"
b1000 I"
b100010000000000000000000000000000000000000000000000000000000000000000000000000000000000000000000000000000000000000000000000000000000000 )"
b1100 ;
b1100 k
b1100 G"
b0 <
b0 l
b0 ."
b100011100000000000000000000000000000000000000000000000000000000000000000000000000000000000000000000011000000000011000000000010100010011 %"
b11000000000010100010011 4
b11000000000010100010011 -"
b11000000000010100010011 /"
b1000 0
b1000 h
b1000 F"
b100 =
b100 i
b100 +"
b100 2"
b100 J"
b1 $
1!
#75
0!
#100
b110 Y
b110 _
b110 c
b10 j
b110 {
b1010 ""
b110 1
b110 `
b110 :"
b110 Z
b110 b
b110 f
b1 8
b1 0"
b1 $"
b1 Q"
b1000000000000000000000000000000001100000000000000000000000000000000000000000011000000000010100010011 r
b11000000000010100010011 5
b110 7
b110 9"
1[
b11 ]
b11 d
b10000000000000000000000000000000000000000000000000000000000000000000000000000000000000000000000000 3"
1@
b100000000010010010011 6
b100000000010010010011 ,"
b100000000010010010011 1"
b1100 E
b1100 H"
b1100 I"
b110 ;
b110 k
b110 G"
b100 <
b100 l
b100 ."
b100011100000000000000000000000000000000000000000000000000000000000000000000000000000000000000000000000100000000000100000000010110010011 %"
b100000000010110010011 4
b100000000010110010011 -"
b100000000010110010011 /"
b100011100000000000000000000000000000000000000000000000000000000000000000000000000000000000000000000011000000000011000000000010100010011 )"
b1000000000000000000000000000000000000000000000000000000000000000000000000000000000000000000000000000 v
b1100 0
b1100 h
b1100 F"
b1000 =
b1000 i
b1000 +"
b1000 2"
b1000 J"
b10 $
1!
#125
0!
#150
b1 Y
b1 _
b1 c
b1010 |
b1 {
b1011 ""
b1 1
b1 `
b1 :"
1?
b11000000000010100010011 3
b10000000000000000000000000000001100000000000000000000000000000000000000000011000000000010100010011 3"
b110 X
b110 o
b110 >"
b110 C"
b1000000000000000000000000000000000010000000000000000000000000000000000000000000100000000010110010011 r
b100000000010110010011 5
b1 7
b1 9"
b10101101001000010010110011 6
b10101101001000010010110011 ,"
b10101101001000010010110011 1"
b10000 E
b10000 H"
b10000 I"
b10000000000000000000000000000000000000000000000000000000000000000000000000000000000000000000000000 7"
b1000000000000000000000000000000001100000000000000000000000000000000000000000011000000000010100010011 v
b100011100000000000000000000000000000000000000000000000000000000000000000000000000000000000000000000000100000000000100000000010110010011 )"
b1010 ;
b1010 k
b1010 G"
b1000 <
b1000 l
b1000 ."
b100011100000000000000000000000000000000000000000000000000000000000000000000000000000000000000000000000100000000000100000000010010010011 %"
b100000000010010010011 4
b100000000010010010011 -"
b100000000010010010011 /"
b10000 0
b10000 h
b10000 F"
b1100 =
b1100 i
b1100 +"
b1100 2"
b1100 J"
b11 $
1!
#175
0!
#200
b1010110 j
0\
b10 ^
b10 n
b1001 ""
b1011 |
b1010 N"
b1010 }
b110 *
b110 ?"
b110 D"
b110 M"
b110 O"
b101011 8
b101011 0"
b1011 $"
b1001 #"
b1011 Q"
b1001 P"
b110011 m
b1000000000000000000000000000000000010000000000000000000000000000000000000000000100000000010010010011 r
b100000000010010010011 5
b100000000010110010011 3
b10000000000000000000000000000000010000000000000000000000000000000000000000000100000000010110010011 3"
b1 X
b1 o
b1 >"
b1 C"
b11000000000010100010011 2
b110 W
b110 K"
b101011000010110010011 6
b101011000010110010011 ,"
b101011000010110010011 1"
b10100 E
b10100 H"
b10100 I"
b1100010 ;
b1100010 k
b1100010 G"
b1100 <
b1100 l
b1100 ."
b100010000000000000000000000000000000000000000000000000000000000000000000000000000000000000000000010101100000010101101001000010010110011 %"
b10101101001000010010110011 4
b10101101001000010010110011 -"
b10101101001000010010110011 /"
b100011100000000000000000000000000000000000000000000000000000000000000000000000000000000000000000000000100000000000100000000010010010011 )"
b1000000000000000000000000000000000010000000000000000000000000000000000000000000100000000010110010011 v
b10000000000000000000000000000001100000000000000000000000000000000000000000011000000000010100010011 7"
b10100 0
b10100 h
b10100 F"
b10000 =
b10000 i
b10000 +"
b10000 2"
b10000 J"
b100 $
1!
#225
0!
#250
b1 Q
b1 ;"
b1 E"
b1 R
b1 a
b1 @"
b1 S
b1 !"
b1 A"
b10 T
b10 ~
b10 <"
0C
b1 /
b1 y
b1 S"
b1 Y
b1 _
b1 c
b1011 N"
b1011 }
b1 *
b1 ?"
b1 D"
b1 M"
b1 O"
b1001 |
b1001 z
b1011 {
b1000 e
b1 1
b1 `
b1 :"
b101 Z
b101 b
b101 f
b10 j
1\
b11 ^
b11 n
b100000000010110010011 2
b1 W
b1 K"
b10000000000000000000000000000000010000000000000000000000000000000000000000000100000000010010010011 3"
b100000000010010010011 3
b1000000000000000000000000000000000010000000000000000000000000000000100000010101101001000010010110011 r
b10101101001000010010110011 5
b101011 7
b101011 9"
0[
b10 ]
b10 d
b1 8
b1 0"
b1 $"
b1011 #"
b1 Q"
b1011 P"
b10011 m
b1011000111000010011 6
b1011000111000010011 ,"
b1011000111000010011 1"
b11000 E
b11000 H"
b11000 I"
b10000000000000000000000000000000010000000000000000000000000000000000000000000100000000010110010011 7"
b1000000000000000000000000000000000010000000000000000000000000000000000000000000100000000010010010011 v
b100010000000000000000000000000000000000000000000000000000000000000000000000000000000000000000000010101100000010101101001000010010110011 )"
b10010 ;
b10010 k
b10010 G"
b10000 <
b10000 l
b10000 ."
b100011100000000000000000000000000000001000000000000000000000000000000000000000000000000000000000000000100000000000101011000010110010011 %"
b101011000010110010011 4
b101011000010110010011 -"
b101011000010110010011 /"
b11000 0
b11000 h
b11000 F"
b10100 =
b10100 i
b10100 +"
b10100 2"
b10100 J"
b101 $
1!
#275
0!
#300
b0 Q
b0 ;"
b0 E"
b0 S
b0 !"
b0 A"
b0 T
b0 ~
b0 <"
b10 Y
b10 _
b10 c
b0 j
b1011 z
b1 {
b0 e
b1011 ""
b110 Z
b110 b
b110 f
b1001 N"
b1001 }
b0 8
b0 0"
b0 $"
b0 Q"
b1000000000000000000000000000000000100000000000000000000000000000000000000000000101011000010110010011 r
b101011000010110010011 5
b1 7
b1 9"
b1 .
b1 ="
1[
b11 ]
b11 d
b10000000000000000000000000000000010000000000000000000000000000000000000010101101001000010010110011 3"
b10101101001000010010110011 3
b1 +
b1 p
b100000000010010010011 2
b11111111111101011000111010010011 6
b11111111111101011000111010010011 ,"
b11111111111101011000111010010011 1"
b11100 E
b11100 H"
b11100 I"
b10100 ;
b10100 k
b10100 G"
b10100 <
b10100 l
b10100 ."
b100011100000000000000000000000000000001000000000000000000000000000000000000000000000000000000000000000000000000000001011000111000010011 %"
b1011000111000010011 4
b1011000111000010011 -"
b1011000111000010011 /"
b100011100000000000000000000000000000001000000000000000000000000000000000000000000000000000000000000000100000000000101011000010110010011 )"
b1000000000000000000000000000000000010000000000000000000000000000000100000010101101001000010010110011 v
b10000000000000000000000000000000010000000000000000000000000000000000000000000100000000010010010011 7"
b11100 0
b11100 h
b11100 F"
b11000 =
b11000 i
b11000 +"
b11000 2"
b11000 J"
b110 $
1!
#325
0!
#350
b10 R
b10 a
b10 @"
b10 T
b10 ~
b10 <"
b10 Y
b10 _
b10 c
b1011 |
b0 {
b11100 ""
b0 1
b0 `
b0 :"
b11111111111111111111111111111110 j
b10101101001000010010110011 2
b101011000010110010011 3
b0 +
b0 p
b10000000000000000000000000000000100000000000000000000000000000000000000000000101011000010110010011 3"
b10 X
b10 o
b10 >"
b10 C"
b1000000000000000000000000000000000100000000000000000000000000000000000000000000001011000111000010011 r
b1011000111000010011 5
b0 7
b0 9"
b11111111111111111111111111111111 8
b11111111111111111111111111111111 0"
b11111 $"
b11111 Q"
b11111111111001011000111100010011 6
b11111111111001011000111100010011 ,"
b11111111111001011000111100010011 1"
b100000 E
b100000 H"
b100000 I"
b10000000000000000000000000000000010000000000000000000000000000000000000010101101001000010010110011 7"
b1000000000000000000000000000000000100000000000000000000000000000000000000000000101011000010110010011 v
b100011100000000000000000000000000000001000000000000000000000000000000000000000000000000000000000000000000000000000001011000111000010011 )"
b10110 ;
b10110 k
b10110 G"
b11000 <
b11000 l
b11000 ."
b100011100000000000000000000000000000001000000000000000000000000000000001111111111111111111111111111111111111111111101011000111010010011 %"
b11111111111101011000111010010011 4
b11111111111101011000111010010011 -"
b11111111111101011000111010010011 /"
b100000 0
b100000 h
b100000 F"
b11100 =
b11100 i
b11100 +"
b11100 2"
b11100 J"
b111 $
1!
#375
0!
#400
b1 T
b1 ~
b1 <"
b10 /
b10 y
b10 S"
b1 Y
b1 _
b1 c
b11111111111111111111111111111100 j
b11111 {
b1111111000 e
b11101 ""
b11111111111111111111111111111111 1
b11111111111111111111111111111111 `
b11111111111111111111111111111111 :"
b11100 |
b1011 N"
b1011 }
b10 *
b10 ?"
b10 D"
b10 M"
b10 O"
b11111111111111111111111111111110 8
b11111111111111111111111111111110 0"
b11110 $"
b11110 Q"
b1000000000000000000000000000000000010000000000000000000000000000000011111111111101011000111010010011 r
b11111111111101011000111010010011 5
b11111111111111111111111111111111 7
b11111111111111111111111111111111 9"
b10000000000000000000000000000000100000000000000000000000000000000000000000000001011000111000010011 3"
b1011000111000010011 3
b101011000010110010011 2
b10 W
b10 K"
b101101010000010001100011 6
b101101010000010001100011 ,"
b101101010000010001100011 1"
b100100 E
b100100 H"
b100100 I"
b11000 ;
b11000 k
b11000 G"
b11100 <
b11100 l
b11100 ."
b100011100000000000000000000000000000010000000000000000000000000000000001111111111111111111111111111111011111111111001011000111100010011 %"
b11111111111001011000111100010011 4
b11111111111001011000111100010011 -"
b11111111111001011000111100010011 /"
b100011100000000000000000000000000000001000000000000000000000000000000001111111111111111111111111111111111111111111101011000111010010011 )"
b1000000000000000000000000000000000100000000000000000000000000000000000000000000001011000111000010011 v
b10000000000000000000000000000000100000000000000000000000000000000000000000000101011000010110010011 7"
b100100 0
b100100 h
b100100 F"
b100000 =
b100000 i
b100000 +"
b100000 2"
b100000 J"
b1000 $
1!
#425
0!
#450
b0 T
b0 ~
b0 <"
b0 Y
b0 _
b0 c
b110 /
b110 y
b110 S"
b11100 N"
b11100 }
b11101 |
b11110 {
b11110 ""
b11111111111111111111111111111110 1
b11111111111111111111111111111110 `
b11111111111111111111111111111110 :"
b1000 j
b10 -
b10 x
b10 R"
0B
1V
0\
b1 ^
b1 n
b1011000111000010011 2
b11111111111101011000111010010011 3
b10000000000000000000000000000000010000000000000000000000000000000011111111111101011000111010010011 3"
b1 X
b1 o
b1 >"
b1 C"
b1000000000000000000000000000000000000000000000000000000000000000000011111111111001011000111100010011 r
b11111111111001011000111100010011 5
b11111111111111111111111111111110 7
b11111111111111111111111111111110 9"
b10 .
b10 ="
b100 8
b100 0"
b1011 $"
b1010 #"
b1011 Q"
b1010 P"
b1100011 m
b11111110000000000000010011100011 6
b11111110000000000000010011100011 ,"
b11111110000000000000010011100011 1"
b101000 E
b101000 H"
b101000 I"
b10000000000000000000000000000000100000000000000000000000000000000000000000000001011000111000010011 7"
b1000000000000000000000000000000000010000000000000000000000000000000011111111111101011000111010010011 v
b100011100000000000000000000000000000010000000000000000000000000000000001111111111111111111111111111111011111111111001011000111100010011 )"
b101000 ;
b101000 k
b101000 G"
b100000 <
b100000 l
b100000 ."
b1000000000000000000000000000000110000000000000000000000000000000100000000000000000000000000000010000000000101101010000010001100011 %"
b101101010000010001100011 4
b101101010000010001100011 -"
b101101010000010001100011 /"
b101000 0
b101000 h
b101000 F"
b100100 =
b100100 i
b100100 +"
b100100 2"
b100100 J"
b1001 $
1!
#475
0!
#500
1U
1C
b1000 Y
b1000 _
b1000 c
b11111111111111111111111111101000 j
b0 -
b0 x
b0 R"
b0 /
b0 y
b0 S"
b1010 z
b1011 {
b0 e
b1000 ""
b10 1
b10 `
b10 :"
b11110 |
b110 R
b110 a
b110 @"
b10 Q
b10 ;"
b10 E"
b11101 N"
b11101 }
b1 *
b1 ?"
b1 D"
b1 M"
b1 O"
b1111111111111111111111111110100 8
b1111111111111111111111111110100 0"
b0 $"
b0 #"
b0 Q"
b0 P"
b101101010000010001100011 5
b100 7
b100 9"
b10 ,
b10 B"
b110 .
b110 ="
0[
b1 ]
b1 d
b10000000000000000000000000000000001000000000101101010000010001100011 r
0A
b11111111111001011000111100010011 3
b10000000000000000000000000000000000000000000000000000000000000000011111111111001011000111100010011 3"
b0 X
b0 o
b0 >"
b0 C"
b11111111111101011000111010010011 2
b1 W
b1 K"
b100100000010001000100011 6
b100100000010001000100011 ,"
b100100000010001000100011 1"
b1100 E
b1100 H"
b1100 I"
b1100 ;
b1100 k
b1100 G"
b100100 <
b100100 l
b100100 ."
b1000000000000000000000000000000000000000000000000000000000000000000111111111111111111111111111010011111110000000000000010011100011 %"
b11111110000000000000010011100011 4
b11111110000000000000010011100011 -"
b11111110000000000000010011100011 /"
b1000000000000000000000000000000110000000000000000000000000000000100000000000000000000000000000010000000000101101010000010001100011 )"
b1000000000000000000000000000000000000000000000000000000000000000000011111111111001011000111100010011 v
b10000000000000000000000000000000010000000000000000000000000000000011111111111101011000111010010011 7"
b101100 0
b101100 h
b101100 F"
b101000 =
b101000 i
b101000 +"
b101000 2"
b101000 J"
b1010 $
1!
#525
0!
#550
b0 1
b0 `
b0 :"
b0 Y
b0 _
b0 c
0U
b11110 N"
b11110 }
b0 *
b0 ?"
b0 D"
b0 M"
b0 O"
b1000 |
b0 z
b0 {
b1111111000 e
b1001 ""
b0 Q
b0 ;"
b0 E"
b0 R
b0 a
b0 @"
b0 j
b10 ^
b10 n
1B
0V
b11111111111001011000111100010011 2
b0 W
b0 K"
b101101010000010001100011 3
b10 +
b10 p
b1000 X
b1000 o
b1000 >"
b1000 C"
b10000000000000000000000000000000000000000000101101010000010001100011 3"
0@
b11111110000000000000010011100011 r
b11111110000000000000010011100011 5
b1111111111111111111111111110100 7
b1111111111111111111111111110100 9"
b0 ,
b0 B"
b0 .
b0 ="
b10000 E
b10000 H"
b10000 I"
b0 8
b0 0"
b0 m
b10101101001000010010110011 6
b10101101001000010010110011 ,"
b10101101001000010010110011 1"
b10000000000000000000000000000000000000000000000000000000000000000011111111111001011000111100010011 7"
b10000000000000000000000000000000001000000000101101010000010001100011 v
b1000000000000000000000000000000000000000000000000000000000000000000111111111111111111111111111010011111110000000000000010011100011 )"
b101000 ;
b101000 k
b101000 G"
b101000 <
b101000 l
b101000 ."
b100010000000000000000000000000000000000000000000000000000000000000000000000000000000000000000000000000000000000000000000000000000000000 %"
b0 4
b0 -"
b0 /"
b10000 0
b10000 h
b10000 F"
b1100 =
b1100 i
b1100 +"
b1100 2"
b1100 J"
b1011 $
b1 %
1!
#575
0!
#600
0C
b11 Z
b11 b
b11 f
b1010110 j
b10 -
b10 x
b10 R"
b1 /
b1 y
b1 S"
b0 e
b0 ""
b1001 |
b1000 N"
b1000 }
b1000 *
b1000 ?"
b1000 D"
b1000 M"
b1000 O"
b101011 8
b101011 0"
b1011 $"
b1001 #"
b1011 Q"
b1001 P"
b110011 m
b0 5
b0 7
b0 9"
b10 ]
b10 d
b1000000000000000000000000000000000000000000000000000000000000000000000000000000000000000000000000000 r
1A
b11111110000000000000010011100011 3
b0 +
b0 p
b11111110000000000000010011100011 3"
b0 X
b0 o
b0 >"
b0 C"
b101101010000010001100011 2
b1000 W
b1000 K"
0?
b101011000010110010011 6
b101011000010110010011 ,"
b101011000010110010011 1"
b10100 E
b10100 H"
b10100 I"
b1100010 ;
b1100010 k
b1100010 G"
b1100 <
b1100 l
b1100 ."
b100010000000000000000000000000000000001000000000000000000000000000000100000000000000000000000000010101100000010101101001000010010110011 %"
b10101101001000010010110011 4
b10101101001000010010110011 -"
b10101101001000010010110011 /"
b100010000000000000000000000000000000000000000000000000000000000000000000000000000000000000000000000000000000000000000000000000000000000 )"
b11111110000000000000010011100011 v
b10000000000000000000000000000000000000000000101101010000010001100011 7"
b10100 0
b10100 h
b10100 F"
b10000 =
b10000 i
b10000 +"
b10000 2"
b10000 J"
b1100 $
1!
#625
0!
#650
b0 T
b0 ~
b0 <"
b101 Z
b101 b
b101 f
b10 1
b10 `
b10 :"
b10 Y
b10 _
b10 c
b1001 N"
b1001 }
b0 *
b0 ?"
b0 D"
b0 M"
b0 O"
b0 |
b1001 z
b1011 {
b1000 e
b1001 ""
b10 Q
b10 ;"
b10 E"
b1 R
b1 a
b1 @"
b10 j
b0 -
b0 x
b0 R"
b10 /
b10 y
b10 S"
1\
b11 ^
b11 n
b11111110000000000000010011100011 2
b0 W
b0 K"
b0 3
b10000000000000000000000000000000000000000000000000000000000000000000000000000000000000000000000000 3"
1@
b1000000000000000000000000000000000100000000000000000000000000000001000000010101101001000010010110011 r
b10101101001000010010110011 5
b101011 7
b101011 9"
b10 ,
b10 B"
b1 .
b1 ="
b1 8
b1 0"
b1 $"
b1011 #"
b1 Q"
b1011 P"
b10011 m
b1011000111000010011 6
b1011000111000010011 ,"
b1011000111000010011 1"
b11000 E
b11000 H"
b11000 I"
b11111110000000000000010011100011 7"
b1000000000000000000000000000000000000000000000000000000000000000000000000000000000000000000000000000 v
b100010000000000000000000000000000000001000000000000000000000000000000100000000000000000000000000010101100000010101101001000010010110011 )"
b10010 ;
b10010 k
b10010 G"
b10000 <
b10000 l
b10000 ."
b100011100000000000000000000000000000010000000000000000000000000000000000000000000000000000000000000000100000000000101011000010110010011 %"
b101011000010110010011 4
b101011000010110010011 -"
b101011000010110010011 /"
b11000 0
b11000 h
b11000 F"
b10100 =
b10100 i
b10100 +"
b10100 2"
b10100 J"
b1101 $
1!
#675
0!
