codes/CPU.vcd
$date
	Sun Dec 13 21:08:50 2020
$end
$version
	Icarus Verilog
$end
$timescale
	1s
$end
$scope module TestBench $end
$var reg 1 ! Clk $end
$var reg 1 " Reset $end
$var reg 1 # Start $end
$var integer 32 $ counter [31:0] $end
$var integer 32 % flush [31:0] $end
$var integer 32 & i [31:0] $end
$var integer 32 ' outfile [31:0] $end
$var integer 32 ( stall [31:0] $end
$scope module CPU $end
$var wire 1 ) Zero $end
$var wire 1 ! clk_i $end
$var wire 1 " rst_i $end
$var wire 1 # start_i $end
$var wire 32 * write_register [31:0] $end
$var wire 32 + read_data2_MEM [31:0] $end
$var wire 32 , read_data2_EX [31:0] $end
$var wire 32 - read_data2 [31:0] $end
$var wire 32 . read_data1_EX [31:0] $end
$var wire 32 / read_data1 [31:0] $end
$var wire 32 0 new_address [31:0] $end
$var wire 32 1 mux_wire [31:0] $end
$var wire 32 2 ins_WB [31:0] $end
$var wire 32 3 ins_MEM [31:0] $end
$var wire 32 4 ins_ID [31:0] $end
$var wire 32 5 ins_EX [31:0] $end
$var wire 32 6 ins [31:0] $end
$var wire 32 7 imm_gen_wire_EX [31:0] $end
$var wire 32 8 imm_gen_wire [31:0] $end
$var wire 32 9 data_memory_output_WB [31:0] $end
$var wire 32 : data_memory_output [31:0] $end
$var wire 32 ; branch_address [31:0] $end
$var wire 32 < address_ID [31:0] $end
$var wire 32 = address [31:0] $end
$var wire 1 > Stall $end
$var wire 1 ? RegWrite_WB $end
$var wire 1 @ RegWrite_MEM $end
$var wire 1 A RegWrite_EX $end
$var wire 1 B RegWrite $end
$var wire 1 C RS1eqRS2 $end
$var wire 1 D PCWrite $end
$var wire 32 E PCSrc_address [31:0] $end
$var wire 1 F NoOp $end
$var wire 1 G MemtoReg_WB $end
$var wire 1 H MemtoReg_MEM $end
$var wire 1 I MemtoReg_EX $end
$var wire 1 J MemtoReg $end
$var wire 1 K MemWrite_MEM $end
$var wire 1 L MemWrite_EX $end
$var wire 1 M MemWrite $end
$var wire 1 N MemRead_MEM $end
$var wire 1 O MemRead_EX $end
$var wire 1 P MemRead $end
$var wire 32 Q MUX_ForwardB_out [31:0] $end
$var wire 32 R MUX_ForwardA_out [31:0] $end
$var wire 2 S Forward_B [1:0] $end
$var wire 2 T Forward_A [1:0] $end
$var wire 1 U Flush $end
$var wire 1 V Branch $end
$var wire 32 W ALU_result_WB [31:0] $end
$var wire 32 X ALU_result_MEM [31:0] $end
$var wire 32 Y ALU_result [31:0] $end
$var wire 3 Z ALU_control_wire [2:0] $end
$var wire 1 [ ALUSrc_EX $end
$var wire 1 \ ALUSrc $end
$var wire 2 ] ALUOp_EX [1:0] $end
$var wire 2 ^ ALUOp [1:0] $end
$scope module ALU $end
$var wire 1 ) Zero_o $end
$var wire 32 _ data2_i [31:0] $end
$var wire 32 ` data1_i [31:0] $end
$var wire 3 a ALUCtrl_i [2:0] $end
$var reg 32 b data_o [31:0] $end
$upscope $end
$scope module ALU_Control $end
$var wire 2 c ALUOp_i [1:0] $end
$var wire 10 d funct_i [9:0] $end
$var reg 3 e ALUCtrl_o [2:0] $end
$upscope $end
$scope module AND_Branch_Equality $end
$var wire 1 U data_o $end
$var wire 1 C data2_i $end
$var wire 1 V data1_i $end
$upscope $end
$scope module Add_PC $end
$var wire 32 f data2_in [31:0] $end
$var wire 32 g data_o [31:0] $end
$var wire 32 h data1_in [31:0] $end
$upscope $end
$scope module Add_PC_Imm $end
$var wire 32 i data1_in [31:0] $end
$var wire 32 j data_o [31:0] $end
$var wire 32 k data2_in [31:0] $end
$upscope $end
$scope module Control $end
$var wire 7 l Op_i [6:0] $end
$var wire 1 F NoOp_i $end
$var reg 2 m ALUOp_o [1:0] $end
$var reg 1 \ ALUSrc_o $end
$var reg 1 V Branch_o $end
$var reg 1 P MemRead_o $end
$var reg 1 M MemWrite_o $end
$var reg 1 J MemtoReg_o $end
$var reg 1 B RegWrite_o $end
$upscope $end
$scope module Data_Memory $end
$var wire 1 N MemRead_i $end
$var wire 1 K MemWrite_i $end
$var wire 32 n addr_i [31:0] $end
$var wire 1 ! clk_i $end
$var wire 32 o data_i [31:0] $end
$var wire 32 p data_o [31:0] $end
$upscope $end
$scope module EX_MEM $end
$var wire 1 ! clk_i $end
$var wire 100 q data_i [99:0] $end
$var wire 1 r flush_i $end
$var wire 32 s pc_i [31:0] $end
$var wire 1 t stall_i $end
$var wire 1 # start_i $end
$var reg 100 u data_o [99:0] $end
$var reg 32 v pc_o [31:0] $end
$upscope $end
$scope module Equality_Compare $end
$var wire 1 C result_o $end
$var wire 32 w data2_i [31:0] $end
$var wire 32 x data1_i [31:0] $end
$upscope $end
$scope module Forwarding_Unit $end
$var wire 5 y EX_rs1_i [4:0] $end
$var wire 5 z EX_rs2_i [4:0] $end
$var wire 5 { MEM_Rd_i [4:0] $end
$var wire 1 @ MEM_RegWrite_i $end
$var wire 5 | WB_Rd_i [4:0] $end
$var wire 1 ? WB_RegWrite_i $end
$var wire 1 ! clk_i $end
$var reg 2 } ForwardA_o [1:0] $end
$var reg 2 ~ ForwardB_o [1:0] $end
$upscope $end
$scope module Hazard_Detection $end
$var wire 1 O MemRead_EX_i $end
$var wire 5 !" RDaddr_EX_i [4:0] $end
$var wire 5 "" RS1addr_ID_i [4:0] $end
$var wire 5 #" RS2addr_ID_i [4:0] $end
$var wire 1 A RegWrite_EX_i $end
$var reg 1 F NoOp_o $end
$var reg 1 D PCWrite_o $end
$var reg 1 > Stall_o $end
$upscope $end
$scope module ID_EX $end
$var wire 1 ! clk_i $end
$var wire 135 $" data_i [134:0] $end
$var wire 1 %" flush_i $end
$var wire 32 &" pc_i [31:0] $end
$var wire 1 '" stall_i $end
$var wire 1 # start_i $end
$var reg 135 (" data_o [134:0] $end
$var reg 32 )" pc_o [31:0] $end
$upscope $end
$scope module IF_ID $end
$var wire 1 ! clk_i $end
$var wire 1 U flush_i $end
$var wire 1 > stall_i $end
$var wire 1 # start_i $end
$var wire 32 *" pc_i [31:0] $end
$var wire 32 +" data_i [31:0] $end
$var reg 32 ," data_o [31:0] $end
$var reg 32 -" pc_o [31:0] $end
$upscope $end
$scope module Imm_Gen $end
$var wire 32 ." data_i [31:0] $end
$var reg 32 /" data_o [31:0] $end
$upscope $end
$scope module Instruction_Memory $end
$var wire 32 0" instr_o [31:0] $end
$var wire 32 1" addr_i [31:0] $end
$upscope $end
$scope module MEM_WB $end
$var wire 1 ! clk_i $end
$var wire 98 2" data_i [97:0] $end
$var wire 1 3" flush_i $end
$var wire 32 4" pc_i [31:0] $end
$var wire 1 5" stall_i $end
$var wire 1 # start_i $end
$var reg 98 6" data_o [97:0] $end
$var reg 32 7" pc_o [31:0] $end
$upscope $end
$scope module MUX_ALUSrc $end
$var wire 32 8" data2_i [31:0] $end
$var wire 1 [ select_i $end
$var wire 32 9" data_o [31:0] $end
$var wire 32 :" data1_i [31:0] $end
$upscope $end
$scope module MUX_ForwardA $end
$var wire 2 ;" Forward_i [1:0] $end
$var wire 32 <" data00_i [31:0] $end
$var wire 32 =" data10_i [31:0] $end
$var wire 32 >" data01_i [31:0] $end
$var reg 32 ?" data_o [31:0] $end
$upscope $end
$scope module MUX_ForwardB $end
$var wire 2 @" Forward_i [1:0] $end
$var wire 32 A" data00_i [31:0] $end
$var wire 32 B" data10_i [31:0] $end
$var wire 32 C" data01_i [31:0] $end
$var reg 32 D" data_o [31:0] $end
$upscope $end
$scope module MUX_PCSrc $end
$var wire 32 E" data1_i [31:0] $end
$var wire 32 F" data2_i [31:0] $end
$var wire 1 U select_i $end
$var wire 32 G" data_o [31:0] $end
$upscope $end
$scope module PC $end
$var wire 1 D PCWrite_i $end
$var wire 1 ! clk_i $end
$var wire 32 H" pc_i [31:0] $end
$var wire 1 " rst_i $end
$var wire 1 # start_i $end
$var reg 32 I" pc_o [31:0] $end
$upscope $end
$scope module REG_WRISrc $end
$var wire 32 J" data1_i [31:0] $end
$var wire 32 K" data2_i [31:0] $end
$var wire 1 G select_i $end
$var wire 32 L" data_o [31:0] $end
$upscope $end
$scope module Registers $end
$var wire 5 M" RDaddr_i [4:0] $end
$var wire 32 N" RDdata_i [31:0] $end
$var wire 5 O" RS1addr_i [4:0] $end
$var wire 5 P" RS2addr_i [4:0] $end
$var wire 1 ? RegWrite_i $end
$var wire 1 ! clk_i $end
$var wire 32 Q" RS2data_o [31:0] $end
$var wire 32 R" RS1data_o [31:0] $end
$upscope $end
$upscope $end
$upscope $end
$enddefinitions $end
#0
$dumpvars
bx R"
bx Q"
bx P"
bx O"
b0 N"
b0 M"
b0 L"
bx K"
b0 J"
b0 I"
b100 H"
b100 G"
bx F"
b100 E"
bx D"
b0 C"
bx B"
bx A"
b0 @"
bx ?"
b0 >"
bx ="
bx <"
b0 ;"
bx :"
bx 9"
b0 8"
bx 7"
b0xxxxxxxxxxxxxxxxxxxxxxxxxxxxxxxx00000000000000000000000000000000 6"
x5"
bx 4"
x3"
b0xxxxxxxxxxxxxxxxxxxxxxxxxxxxxxxx0000000000000000000000000000000000000000000000000000000000000000 2"
b0 1"
b111100000000001100010011 0"
bx /"
bx ."
bx -"
bx ,"
b111100000000001100010011 +"
b0 *"
bx )"
bx0000000000000000000000000000000000000000000000000000000000000000 ("
x'"
bx &"
x%"
b1000100xxxxxxxxxxxxxxxxxxxxxxxxxxxxxxxxxxxxxxxxxxxxxxxxxxxxxxxxxxxxxxxxxxxxxxxxxxxxxxxxxxxxxxxxxxxxxxxxxxxxxxxxxxxxxxxxxxxxxxxxxxxxxxxx $"
bx #"
bx ""
b0 !"
b0 ~
b0 }
b0 |
b0 {
b0 z
b0 y
bx x
bx w
bx v
b0xxxxxxxxxxxxxxxxxxxxxxxxxxxxxxxxxxxxxxxxxxxxxxxxxxxxxxxxxxxxxxxx00000000000000000000000000000000 u
xt
bx s
xr
bx00000000000000000000000000000000 q
b0 p
bx o
bx n
b10 m
bx l
bx k
bx j
bx0 i
b0 h
b100 g
b100 f
bx e
b0 d
bx c
bx b
bx a
bx `
bx _
b10 ^
bx ]
0\
x[
bx Z
bx Y
bx X
b0 W
0V
0U
b0 T
b0 S
bx R
bx Q
0P
xO
0N
0M
xL
0K
0J
xI
0H
0G
0F
b100 E
1D
xC
1B
xA
0@
0?
0>
b0 =
bx <
bx ;
b0 :
bx 9
bx 8
b0 7
b111100000000001100010011 6
b0 5
bx 4
b0 3
b0 2
bx 1
b100 0
bx /
bx .
bx -
bx ,
bx +
b0 *
z)
b0 (
b11 '
b100000 &
b0 %
b0 $
0#
1"
1!
$end
#12
1C
b0 Y
b0 b
b0 i
b0 -
b0 w
b0 Q"
b0 /
b0 x
b0 R"
b0 1
b0 _
b0 9"
b0 R
b0 `
b0 ?"
b0 Q
b0 :"
b0 D"
b0 8
b0 /"
b0 #"
b0 ""
b0 P"
b0 O"
b0 l
b0 ,
b0 A"
b0 .
b0 <"
0[
b0 ]
b0 c
0L
0O
0I
b0 q
0A
b0 +
b0 o
b0 2"
b0 X
b0 n
b0 ="
b0 B"
b0 9
b0 K"
b100010000000000000000000000000000000000000000000000000000000000000000000000000000000000000000000000000000000000000000000000000000000000 $"
b0 4
b0 ,"
b0 ."
b0 ("
b0 u
b0 6"
1#
0"
#25
0!
#50
b11 Z
b11 a
b11 e
b11110 i
1\
b11 ^
b11 m
b10 ]
b10 c
b1000000000000000000000000000000000000000000000000000000000000000000000000000000000000000000000000000 q
1A
b1111 8
b1111 /"
b1111 #"
b1111 P"
b10011 l
b11000000010001000100011 6
b11000000010001000100011 +"
b11000000010001000100011 0"
b1000 E
b1000 G"
b1000 H"
b100010000000000000000000000000000000000000000000000000000000000000000000000000000000000000000000000000000000000000000000000000000000000 ("
b11110 ;
b11110 j
b11110 F"
b0 <
b0 k
b0 -"
b100011100000000000000000000000000000000000000000000000000000000000000000000000000000000000000000000111100000000111100000000001100010011 $"
b111100000000001100010011 4
b111100000000001100010011 ,"
b111100000000001100010011 ."
b1000 0
b1000 g
b1000 E"
b100 =
b100 h
b100 *"
b100 1"
b100 I"
b1 $
1!
#75
0!
#100
b1111 Y
b1111 b
b1000 i
0B
1M
b0 ^
b0 m
b1111 z
b110 !"
b1111 1
b1111 _
b1111 9"
b110 Z
b110 a
b110 e
b100 8
b100 /"
b110 #"
b110 P"
b100011 l
b1000000000000000000000000000000011110000000000000000000000000000000000000000111100000000001100010011 q
b111100000000001100010011 5
b1111 7
b1111 8"
1[
b11 ]
b11 c
b10000000000000000000000000000000000000000000000000000000000000000000000000000000000000000000000000 2"
1@
b101010111100000011 6
b101010111100000011 +"
b101010111100000011 0"
b1100 E
b1100 G"
b1100 H"
b1100 ;
b1100 j
b1100 F"
b100 <
b100 k
b100 -"
b100100000000000000000000000000000000000000000000000000000000000000000000000000000000000000000000010000000000011000000010001000100011 $"
b11000000010001000100011 4
b11000000010001000100011 ,"
b11000000010001000100011 ."
b100011100000000000000000000000000000000000000000000000000000000000000000000000000000000000000000000111100000000111100000000001100010011 ("
b1000000000000000000000000000000000000000000000000000000000000000000000000000000000000000000000000000 u
b1100 0
b1100 g
b1100 E"
b1000 =
b1000 h
b1000 *"
b1000 1"
b1000 I"
b10 $
1!
#125
0!
#150
b1111 Q
b1111 :"
b1111 D"
b10 S
b10 ~
b10 @"
b11 Z
b11 a
b11 e
b100 Y
b100 b
b110 {
b110 z
b10 d
b100 !"
b100 1
b100 _
b100 9"
b0 i
1P
1J
1B
0M
1?
b111100000000001100010011 3
b10000000000000000000000000000011110000000000000000000000000000000000000000111100000000001100010011 2"
b1111 X
b1111 n
b1111 ="
b1111 B"
b11000000010001000100011 5
b100 7
b100 8"
b0 ]
b0 c
1L
b1000000000000000000000000000001000000000000000000000000000000111100000000011000000010001000100011 q
0A
b0 8
b0 /"
b0 #"
b101 ""
b0 P"
b101 O"
b11 l
b11111000110000001010110011 6
b11111000110000001010110011 +"
b11111000110000001010110011 0"
b10000 E
b10000 G"
b10000 H"
b10000000000000000000000000000000000000000000000000000000000000000000000000000000000000000000000000 6"
b1000000000000000000000000000000011110000000000000000000000000000000000000000111100000000001100010011 u
b100100000000000000000000000000000000000000000000000000000000000000000000000000000000000000000000010000000000011000000010001000100011 ("
b1000 ;
b1000 j
b1000 F"
b1000 <
b1000 k
b1000 -"
b111000100000000000000000000000000000000000000000000000000000000000000000000000000000000000000000000000000000000000000101010111100000011 $"
b101010111100000011 4
b101010111100000011 ,"
b101010111100000011 ."
b10000 0
b10000 g
b10000 E"
b1100 =
b1100 h
b1100 *"
b1100 1"
b1100 I"
b11 $
1!
#175
0!
#200
0B
1F
1>
0D
b0 S
b0 ~
b0 @"
0C
b1111 /
b1111 x
b1111 R"
b0 Y
b0 b
b1111100 i
0\
b0 ^
b0 m
0P
0J
b101 y
b0 z
b11110 !"
b0 1
b0 _
b0 9"
b100 {
b0 Q
b0 :"
b0 D"
b110 M"
b110 |
b1111 *
b1111 >"
b1111 C"
b1111 L"
b1111 N"
b111110 8
b111110 /"
b11110 #"
b110 ""
b11110 P"
b110 O"
b110011 l
b101010111100000011 5
b0 7
b0 8"
0L
1O
1I
b1110000000000000000000000000000000000000000000000000000000000000000000000000000000101010111100000011 q
1A
b11000000010001000100011 3
b1111 +
b1111 o
b100 X
b100 n
b100 ="
b100 B"
1K
b1000000000000000000000000000000000000000000011000000010001000100011 2"
0@
b111100000000001100010011 2
b1111 W
b1111 J"
b101100001110110011 6
b101100001110110011 +"
b101100001110110011 0"
b10100 E
b10100 G"
b10100 H"
b10001000 ;
b10001000 j
b10001000 F"
b1100 <
b1100 k
b1100 -"
b1111000000000000000000000000000000000000000000000000000000000011111000000011111000110000001010110011 $"
b11111000110000001010110011 4
b11111000110000001010110011 ,"
b11111000110000001010110011 ."
b111000100000000000000000000000000000000000000000000000000000000000000000000000000000000000000000000000000000000000000101010111100000011 ("
b1000000000000000000000000000001000000000000000000000000000000111100000000011000000010001000100011 u
b10000000000000000000000000000011110000000000000000000000000000000000000000111100000000001100010011 6"
b10100 0
b10100 g
b10100 E"
b10000 =
b10000 h
b10000 *"
b10000 1"
b10000 I"
b100 $
1!
#225
0!
#250
b10 ^
b10 m
b100010000000000000000000000000000001111000000000000000000000000000000000000000000000000000000000011111000000011111000110000001010110011 $"
1B
b10 S
b10 ~
b10 @"
0F
0>
1D
b1111 Y
b1111 b
b100 M"
b100 |
b100 *
b100 >"
b100 C"
b100 L"
b100 N"
b11110 {
b101 :
b101 p
b110 y
b11110 z
b1000 d
b101 !"
b1111 R
b1111 `
b1111 ?"
b11000000010001000100011 2
b100 W
b100 J"
0?
b101010111100000011 3
b0 +
b0 o
b0 X
b0 n
b0 ="
b0 B"
0K
1N
1H
b11000000000000000000000000000000000000000000000000000000000000010100000000000000101010111100000011 2"
1@
b11111000110000001010110011 5
b111110 7
b111110 8"
b1111 .
b1111 <"
0[
0O
0I
b11110000000000000000000000000000000000000011111000110000001010110011 q
0A
b1000000000000000000000000000000000000000000011000000010001000100011 6"
b1110000000000000000000000000000000000000000000000000000000000000000000000000000000101010111100000011 u
b1111000000000000000000000000000000000000000000000000000000000011111000000011111000110000001010110011 ("
b10001100 ;
b10001100 j
b10001100 F"
b10000 <
b10000 k
b10000 -"
b101 $
b1 (
1!
#275
0!
#300
b1 S
b1 ~
b1 @"
1C
b1001011 Y
b1001011 b
b101 1
b101 _
b101 9"
b10000 ;
b10000 j
b10000 F"
b0 i
b0 /
b0 x
b0 R"
b101 Z
b101 a
b101 e
b101 {
b101 Q
b101 :"
b101 D"
b0 :
b0 p
b11110 M"
b11110 |
b101 *
b101 >"
b101 C"
b101 L"
b101 N"
b0 8
b0 /"
b0 #"
b101 ""
b0 P"
b101 O"
b10 ]
b10 c
b1000000000000000000000000000010010110000000000000000000000000000010100000011111000110000001010110011 q
1A
b11111000110000001010110011 3
b1111 X
b1111 n
b1111 ="
b1111 B"
0N
0H
b11110000000000000000000000000000000000000011111000110000001010110011 2"
0@
b101010111100000011 2
b101 9
b101 K"
b0 W
b0 J"
1G
1?
b11100000010010000100011 6
b11100000010010000100011 +"
b11100000010010000100011 0"
b11000 E
b11000 G"
b11000 H"
b100010000000000000000000000000000000000000000000000000000000000000000000000000000000000000000000000000000000000000000101100001110110011 $"
b101100001110110011 4
b101100001110110011 ,"
b101100001110110011 ."
b100010000000000000000000000000000001111000000000000000000000000000000000000000000000000000000000011111000000011111000110000001010110011 ("
b11110000000000000000000000000000000000000011111000110000001010110011 u
b11000000000000000000000000000000000000000000000000000000000000010100000000000000101010111100000011 6"
b11000 0
b11000 g
b11000 E"
b10100 =
b10100 h
b10100 *"
b10100 1"
b10100 I"
b110 $
1!
#325
0!
#350
b0 S
b0 ~
b0 @"
b10 T
b10 }
b10 ;"
b0 1
b0 _
b0 9"
b0 Q
b0 :"
b0 D"
b1 Z
b1 a
b1 e
b1001011 Y
b1001011 b
b101 M"
b101 |
b1111 *
b1111 >"
b1111 C"
b1111 L"
b1111 N"
b101 y
b0 z
b100 d
b111 !"
b1001011 R
b1001011 `
b1001011 ?"
b10000 i
0B
1M
1\
b0 ^
b0 m
b11111000110000001010110011 2
b0 9
b0 K"
b1111 W
b1111 J"
0G
0?
b101 +
b101 o
b1001011 X
b1001011 n
b1001011 ="
b1001011 B"
b10000000000000000000000000010010110000000000000000000000000000000000000011111000110000001010110011 2"
1@
b1000000000000000000000000000010010110000000000000000000000000000000000000000000000101100001110110011 q
b101100001110110011 5
b0 7
b0 8"
b0 .
b0 <"
b1000 8
b1000 /"
b111 #"
b0 ""
b111 P"
b0 O"
b100011 l
b11000110000001100110011 6
b11000110000001100110011 +"
b11000110000001100110011 0"
b11100 E
b11100 G"
b11100 H"
b11110000000000000000000000000000000000000011111000110000001010110011 6"
b1000000000000000000000000000010010110000000000000000000000000000010100000011111000110000001010110011 u
b100010000000000000000000000000000000000000000000000000000000000000000000000000000000000000000000000000000000000000000101100001110110011 ("
b100100 ;
b100100 j
b100100 F"
b10100 <
b10100 k
b10100 -"
b100100000000000000000000000000000000000000000000000000000000000000000000000000000000000000000000100000000000011100000010010000100011 $"
b11100000010010000100011 4
b11100000010010000100011 ,"
b11100000010010000100011 ."
b11100 0
b11100 g
b11100 E"
b11000 =
b11000 h
b11000 *"
b11000 1"
b11000 I"
b111 $
1!
#375
0!
#400
b1001011 Q
b1001011 :"
b1001011 D"
b0 R
b0 `
b0 ?"
b10 S
b10 ~
b10 @"
b0 T
b0 }
b0 ;"
b11 Z
b11 a
b11 e
b1000 Y
b1000 b
b1100 i
b1111 -
b1111 w
b1111 Q"
b1111 /
b1111 x
b1111 R"
0\
b10 ^
b10 m
1B
0M
b0 y
b111 z
b10 d
b1000 !"
b1000 1
b1000 _
b1000 9"
b111 {
b1001011 *
b1001011 >"
b1001011 C"
b1001011 L"
b1001011 N"
b110 8
b110 /"
b110 #"
b110 ""
b110 P"
b110 O"
b110011 l
b11100000010010000100011 5
b1000 7
b1000 8"
1[
b0 ]
b0 c
1L
b1000000000000000000000000000010000000000000000000000000000100101100000000011100000010010000100011 q
0A
b10000000000000000000000000010010110000000000000000000000000000000000000000000000101100001110110011 2"
b101100001110110011 3
b0 +
b0 o
b1001011 W
b1001011 J"
1?
b100000 E
b100000 G"
b100000 H"
b100100 ;
b100100 j
b100100 F"
b11000 <
b11000 k
b11000 -"
b100010000000000000000000000000000001111000000000000000000000000000011110000000000000000000000000000011000000000011000110000001100110011 $"
b11000110000001100110011 4
b11000110000001100110011 ,"
b11000110000001100110011 ."
b100100000000000000000000000000000000000000000000000000000000000000000000000000000000000000000000100000000000011100000010010000100011 ("
b1000000000000000000000000000010010110000000000000000000000000000000000000000000000101100001110110011 u
b10000000000000000000000000010010110000000000000000000000000000000000000011111000110000001010110011 6"
b100000 0
b100000 g
b100000 E"
b11100 =
b11100 h
b11100 *"
b11100 1"
b11100 I"
b1000 $
1!
#425
0!
#450
b0 S
b0 ~
b0 @"
b11110 Y
b11110 b
b111 M"
b111 |
b1000 {
b110 y
b110 z
b0 d
b110 !"
b1111 Q
b1111 :"
b1111 D"
b1111 R
b1111 `
b1111 ?"
b1111 1
b1111 _
b1111 9"
b101100001110110011 2
b11100000010010000100011 3
b1001011 +
b1001011 o
b1000 X
b1000 n
b1000 ="
b1000 B"
1K
b10000000000000000000000000000000000000000000011100000010010000100011 2"
0@
b11000110000001100110011 5
b110 7
b110 8"
b1111 ,
b1111 A"
b1111 .
b1111 <"
0[
b10 ]
b10 c
0L
b1000000000000000000000000000000111100000000000000000000000000000111100000000011000110000001100110011 q
1A
b100000000010111010000011 6
b100000000010111010000011 +"
b100000000010111010000011 0"
b100100 E
b100100 G"
b100100 H"
b10000000000000000000000000010010110000000000000000000000000000000000000000000000101100001110110011 6"
b1000000000000000000000000000010000000000000000000000000000100101100000000011100000010010000100011 u
b100010000000000000000000000000000001111000000000000000000000000000011110000000000000000000000000000011000000000011000110000001100110011 ("
b101000 ;
b101000 j
b101000 F"
b11100 <
b11100 k
b11100 -"
b100100 0
b100100 g
b100100 E"
b100000 =
b100000 h
b100000 *"
b100000 1"
b100000 I"
b1001 $
1!
#475
0!
#500
b11110 1
b11110 _
b11110 9"
b111100 Y
b111100 b
b1000000000000000000000000000001111000000000000000000000000000001111000000000011000110000001100110011 q
b11110 Q
b11110 :"
b11110 D"
b11110 R
b11110 `
b11110 ?"
b10 S
b10 ~
b10 @"
b10 T
b10 }
b10 ;"
b10000 i
b0 -
b0 w
b0 Q"
b0 /
b0 x
b0 R"
1P
1J
1\
b0 ^
b0 m
b110 {
b1000 M"
b1000 |
b1000 *
b1000 >"
b1000 C"
b1000 L"
b1000 N"
b1000 8
b1000 /"
b1000 #"
b0 ""
b1000 P"
b0 O"
b11 l
b11000110000001100110011 3
b1111 +
b1111 o
b11110 X
b11110 n
b11110 ="
b11110 B"
0K
b10000000000000000000000000000111100000000000000000000000000000000000000000011000110000001100110011 2"
1@
b11100000010010000100011 2
b1000 W
b1000 J"
0?
b1110100110111111000110011 6
b1110100110111111000110011 +"
b1110100110111111000110011 0"
b101000 E
b101000 G"
b101000 H"
b110000 ;
b110000 j
b110000 F"
b100000 <
b100000 k
b100000 -"
b111000100000000000000000000000000000000000000000000000000000000000000000000000000000000000000000000100000000000100000000010111010000011 $"
b100000000010111010000011 4
b100000000010111010000011 ,"
b100000000010111010000011 ."
b1000000000000000000000000000000111100000000000000000000000000000111100000000011000110000001100110011 u
b10000000000000000000000000000000000000000000011100000010010000100011 6"
b101000 0
b101000 g
b101000 E"
b100100 =
b100100 h
b100100 *"
b100100 1"
b100100 I"
b1010 $
1!
#525
0!
#550
0B
b0 S
b0 ~
b0 @"
b0 T
b0 }
b0 ;"
1F
1>
0D
0C
b1000 Y
b1000 b
b110 M"
b110 |
b11110 *
b11110 >"
b11110 C"
b11110 L"
b11110 N"
b0 y
b1000 z
b10 d
b11101 !"
b0 Q
b0 :"
b0 D"
b0 R
b0 `
b0 ?"
b1000 1
b1000 _
b1000 9"
b111010 i
b11110 /
b11110 x
b11110 R"
0\
b0 ^
b0 m
0P
0J
b11000110000001100110011 2
b11110 W
b11110 J"
1?
b11110 +
b11110 o
b10000000000000000000000000001111000000000000000000000000000000000000000000011000110000001100110011 2"
b111100 X
b111100 n
b111100 ="
b111100 B"
b100000000010111010000011 5
b1000 7
b1000 8"
b0 ,
b0 A"
b0 .
b0 <"
1[
b0 ]
b0 c
1O
b1110000000000000000000000000000010000000000000000000000000000000000000000000100000000010111010000011 q
1I
b11101 8
b11101 /"
b11101 #"
b110 ""
b11101 P"
b110 O"
b110011 l
b11111111000000110000001110010011 6
b11111111000000110000001110010011 +"
b11111111000000110000001110010011 0"
b101100 E
b101100 G"
b101100 H"
b10000000000000000000000000000111100000000000000000000000000000000000000000011000110000001100110011 6"
b1000000000000000000000000000001111000000000000000000000000000001111000000000011000110000001100110011 u
b111000100000000000000000000000000000000000000000000000000000000000000000000000000000000000000000000100000000000100000000010111010000011 ("
b1011110 ;
b1011110 j
b1011110 F"
b100100 <
b100100 k
b100100 -"
b11110000000000000000000000000000000000000000000000000000000000001110100000001110100110111111000110011 $"
b1110100110111111000110011 4
b1110100110111111000110011 ,"
b1110100110111111000110011 ."
b101100 0
b101100 g
b101100 E"
b101000 =
b101000 h
b101000 *"
b101000 1"
b101000 I"
b1011 $
1!
#575
0!
#600
b10 ^
b10 m
1B
b1000 Q
b1000 :"
b1000 D"
0F
0>
1D
b10 S
b10 ~
b10 @"
b1 T
b1 }
b1 ;"
b1001011 :
b1001011 p
b1000100 Y
b1000100 b
b100010000000000000000000000000000111100000000000000000000000000000000000000000000000000000000000001110100000001110100110111111000110011 $"
b111100 /
b111100 x
b111100 R"
b110 y
b11101 z
b111 d
b11100 !"
b1000 1
b1000 _
b1000 9"
b11101 {
b111100 R
b111100 `
b111100 ?"
b111100 *
b111100 >"
b111100 C"
b111100 L"
b111100 N"
b1110100110111111000110011 5
b11101 7
b11101 8"
b11110 .
b11110 <"
0[
0O
0I
b10001000000000000000000000000000000100000000001110100110111111000110011 q
0A
b100000000010111010000011 3
b0 +
b0 o
b1000 X
b1000 n
b1000 ="
b1000 B"
1N
b11000000000000000000000000000010000000000000000000000000000100101100000000100000000010111010000011 2"
1H
b111100 W
b111100 J"
b1100010 ;
b1100010 j
b1100010 F"
b101000 <
b101000 k
b101000 -"
b11110000000000000000000000000000000000000000000000000000000000001110100000001110100110111111000110011 ("
b1110000000000000000000000000000010000000000000000000000000000000000000000000100000000010111010000011 u
b10000000000000000000000000001111000000000000000000000000000000000000000000011000110000001100110011 6"
b1100 $
b10 (
1!
#625
0!
#650
b0 T
b0 }
b0 ;"
b1 S
b1 ~
b1 @"
b111100 /
b111100 x
b111100 R"
b111100 R
b111100 `
b111100 ?"
b1001011 1
b1001011 _
b1001011 9"
b1000 Y
b1000 b
b11101 M"
b11101 |
b1001011 *
b1001011 >"
b1001011 C"
b1001011 L"
b1001011 N"
b11100 {
b1001011 Q
b1001011 :"
b1001011 D"
b0 :
b0 p
b0 Z
b0 a
b0 e
b1000 ;
b1000 j
b1000 F"
b11111111111111111111111111100000 i
1\
b11 ^
b11 m
b100000000010111010000011 2
b1001011 9
b1001011 K"
b1000 W
b1000 J"
1G
b1110100110111111000110011 3
b1000 +
b1000 o
b1000100 X
b1000100 n
b1000100 ="
b1000100 B"
0N
0H
b10001000000000000000000000000000000000000000001110100110111111000110011 2"
0@
b111100 .
b111100 <"
b10 ]
b10 c
b1000000000000000000000000000000010000000000000000000000000000100101100000001110100110111111000110011 q
1A
b11111111111111111111111111110000 8
b11111111111111111111111111110000 /"
b10000 #"
b10000 P"
b10011 l
b1000000000111000010011 6
b1000000000111000010011 +"
b1000000000111000010011 0"
b110000 E
b110000 G"
b110000 H"
b11000000000000000000000000000010000000000000000000000000000100101100000000100000000010111010000011 6"
b10001000000000000000000000000000000100000000001110100110111111000110011 u
b100010000000000000000000000000000111100000000000000000000000000000000000000000000000000000000000001110100000001110100110111111000110011 ("
b100011100000000000000000000000000111100000000000000000000000000000000001111111111111111111111111111000011111111000000110000001110010011 $"
b11111111000000110000001110010011 4
b11111111000000110000001110010011 ,"
b11111111000000110000001110010011 ."
b110000 0
b110000 g
b110000 E"
b101100 =
b101100 h
b101100 *"
b101100 1"
b101100 I"
b1101 $
1!
#675
0!
