codes/CPU.vcd
$date
	Sun Dec 06 22:33:11 2020
$end
$version
	Icarus Verilog
$end
$timescale
	1s
$end
$scope module TestBench $end
$var reg 1 ! Clk $end
$var reg 1 " Reset $end
$var reg 1 # Start $end
$var integer 32 $ counter [31:0] $end
$var integer 32 % flush [31:0] $end
$var integer 32 & i [31:0] $end
$var integer 32 ' outfile [31:0] $end
$var integer 32 ( stall [31:0] $end
$scope module CPU $end
$var wire 2 ) ALUOp [1:0] $end
$var wire 2 * ALUOp_EX [1:0] $end
$var wire 1 + ALUSrc $end
$var wire 1 , ALUSrc_EX $end
$var wire 3 - ALU_control_wire [2:0] $end
$var wire 32 . ALU_result [31:0] $end
$var wire 32 / ALU_result_MEM [31:0] $end
$var wire 32 0 ALU_result_WB [31:0] $end
$var wire 1 1 Branch $end
$var wire 1 2 MemRead $end
$var wire 1 3 MemRead_EX $end
$var wire 1 4 MemRead_MEM $end
$var wire 1 5 MemWrite $end
$var wire 1 6 MemWrite_EX $end
$var wire 1 7 MemWrite_MEM $end
$var wire 1 8 MemtoReg $end
$var wire 1 9 MemtoReg_EX $end
$var wire 1 : MemtoReg_MEM $end
$var wire 1 ; MemtoReg_WB $end
$var wire 1 < RegWrite $end
$var wire 1 = RegWrite_EX $end
$var wire 1 > RegWrite_MEM $end
$var wire 1 ? RegWrite_WB $end
$var wire 1 @ Zero $end
$var wire 32 A address [31:0] $end
$var wire 1 B clk_i $end
$var wire 32 C data_memory_output [31:0] $end
$var wire 32 D data_memory_output_WB [31:0] $end
$var wire 32 E imm_gen_wire [31:0] $end
$var wire 32 F imm_gen_wire_EX [31:0] $end
$var wire 32 G ins [31:0] $end
$var wire 32 H ins_EX [31:0] $end
$var wire 32 I ins_ID [31:0] $end
$var wire 32 J ins_MEM [31:0] $end
$var wire 32 K ins_WB [31:0] $end
$var wire 32 L mux_wire [31:0] $end
$var wire 32 M new_address [31:0] $end
$var wire 32 N read_data1 [31:0] $end
$var wire 32 O read_data1_EX [31:0] $end
$var wire 32 P read_data2 [31:0] $end
$var wire 32 Q read_data2_EX [31:0] $end
$var wire 32 R read_data2_MEM [31:0] $end
$var wire 1 S rst_i $end
$var wire 1 T start_i $end
$var wire 32 U write_register [31:0] $end
$scope module IF_ID $end
$var wire 1 B clk_i $end
$var wire 32 V data_i [31:0] $end
$var reg 32 W data_o [31:0] $end
$upscope $end
$scope module ID_EX $end
$var wire 1 B clk_i $end
$var wire 118 X data_i [117:0] $end
$var reg 118 Y data_o [117:0] $end
$upscope $end
$scope module EX_MEM $end
$var wire 1 B clk_i $end
$var wire 73 Z data_i [72:0] $end
$var reg 73 [ data_o [72:0] $end
$upscope $end
$scope module MEM_WB $end
$var wire 1 B clk_i $end
$var wire 71 \ data_i [70:0] $end
$var reg 71 ] data_o [70:0] $end
$upscope $end
$scope module Control $end
$var wire 7 ^ Op_i [6:0] $end
$var reg 2 _ ALUOp_o [1:0] $end
$var reg 1 ` ALUSrc_o $end
$var reg 1 a Branch_o $end
$var reg 1 b MemRead_o $end
$var reg 1 c MemWrite_o $end
$var reg 1 d MemtoReg_o $end
$var reg 1 e RegWrite_o $end
$upscope $end
$scope module Add_PC $end
$var wire 32 f data1_in [31:0] $end
$var wire 32 g data2_in [31:0] $end
$var wire 32 h data_o [31:0] $end
$upscope $end
$scope module PC $end
$var wire 1 i PCWrite_i $end
$var wire 1 B clk_i $end
$var wire 32 j pc_i [31:0] $end
$var wire 1 S rst_i $end
$var wire 1 T start_i $end
$var reg 32 k pc_o [31:0] $end
$upscope $end
$scope module Instruction_Memory $end
$var wire 32 l addr_i [31:0] $end
$var wire 32 m instr_o [31:0] $end
$upscope $end
$scope module Registers $end
$var wire 5 n RDaddr_i [4:0] $end
$var wire 32 o RDdata_i [31:0] $end
$var wire 5 p RS1addr_i [4:0] $end
$var wire 32 q RS1data_o [31:0] $end
$var wire 5 r RS2addr_i [4:0] $end
$var wire 32 s RS2data_o [31:0] $end
$var wire 1 ? RegWrite_i $end
$var wire 1 B clk_i $end
$upscope $end
$scope module MUX_ALUSrc $end
$var wire 32 t data1_i [31:0] $end
$var wire 32 u data2_i [31:0] $end
$var wire 32 v data_o [31:0] $end
$var wire 1 , select_i $end
$upscope $end
$scope module REG_WRISrc $end
$var wire 32 w data1_i [31:0] $end
$var wire 32 x data2_i [31:0] $end
$var wire 32 y data_o [31:0] $end
$var wire 1 ; select_i $end
$upscope $end
$scope module Imm_Gen $end
$var wire 32 z data_i [31:0] $end
$var reg 32 { data_o [31:0] $end
$upscope $end
$scope module ALU $end
$var wire 3 | ALUCtrl_i [2:0] $end
$var wire 1 @ Zero_o $end
$var wire 32 } data1_i [31:0] $end
$var wire 32 ~ data2_i [31:0] $end
$var wire 32 !" data_o [31:0] $end
$var reg 32 "" tmp [31:0] $end
$upscope $end
$scope module ALU_Control $end
$var wire 2 #" ALUOp_i [1:0] $end
$var wire 10 $" funct_i [9:0] $end
$var reg 3 %" ALUCtrl_o [2:0] $end
$upscope $end
$scope module Data_Memory $end
$var wire 1 4 MemRead_i $end
$var wire 1 7 MemWrite_i $end
$var wire 32 &" addr_i [31:0] $end
$var wire 1 B clk_i $end
$var wire 32 '" data_i [31:0] $end
$var wire 32 (" data_o [31:0] $end
$upscope $end
$scope module Hazard_Detection $end
$var wire 1 )" Stall_o $end
$upscope $end
$upscope $end
$upscope $end
$enddefinitions $end
#0
$dumpvars
0)"
b0 ("
b0 '"
b1011 &"
b110 %"
b0 $"
b11 #"
b1011 ""
b1011 !"
b1011 ~
b0 }
b110 |
b1011 {
b101100000000001010010011 z
b1011 y
b0 x
b1011 w
b1011 v
b1011 u
b0 t
b0 s
b1011 r
b0 q
b0 p
b1011 o
b101 n
b101100000000001010010011 m
b0 l
b0 k
b100 j
1i
b100 h
b100 g
b0 f
1e
0d
0c
0b
0a
1`
b11 _
b10011 ^
b10000000000000000000000000000010110000000000000000000000000000000000101 ]
b10000000000000000000000000000010110000000000000000000000000000000000101 \
b1000000000000000000000000000000010110000000000000000000000000000000000101 [
b1000000000000000000000000000000010110000000000000000000000000000000000101 Z
b1000111000000000000000000000000000000000000000000000000000000000000000000000000000000000000000000001011000000000000101 Y
b1000111000000000000000000000000000000000000000000000000000000000000000000000000000000000000000000001011000000000000101 X
b101100000000001010010011 W
b101100000000001010010011 V
b1011 U
0T
1S
b0 R
b0 Q
b0 P
b0 O
b0 N
b100 M
b1011 L
bz00101zzzzzzz K
bz00101zzzzzzz J
b101100000000001010010011 I
b0zzzzzzzzzz00000101zzzzzzz H
b101100000000001010010011 G
b1011 F
b1011 E
b0 D
b0 C
1B
b0 A
z@
1?
1>
1=
1<
0;
0:
09
08
07
06
05
04
03
02
01
b1011 0
b1011 /
b1011 .
b110 -
1,
1+
b11 *
b11 )
b0 (
b11 '
b100000 &
b0 %
b0 $
0#
1"
1!
$end
#12
1#
1T
0"
0S
#25
0!
0B
#50
b110 n
bz00110zzzzzzz K
b1010 U
b1010 o
b1010 y
b1010 0
b1010 w
b10000000000000000000000000000010100000000000000000000000000000000000110 ]
bz00110zzzzzzz J
b10000000000000000000000000000010100000000000000000000000000000000000110 \
b1010 /
b1010 &"
b1000000000000000000000000000000010100000000000000000000000000000000000110 [
b1010 ""
b1010 .
b1010 !"
b1000000000000000000000000000000010100000000000000000000000000000000000110 Z
b1010 L
b1010 v
b1010 ~
b0zzzzzzzzzz00000110zzzzzzz H
b1010 F
b1010 u
b1000111000000000000000000000000000000000000000000000000000000000000000000000000000000000000000000001010000000000000110 Y
b1010 r
b1010 {
b1000111000000000000000000000000000000000000000000000000000000000000000000000000000000000000000000001010000000000000110 X
b1010 E
b101000000000001100010011 W
b101000000000001100010011 I
b101000000000001100010011 z
b101000000000001100010011 G
b101000000000001100010011 V
b101000000000001100010011 m
b100 k
b1000 M
b1000 h
b1000 j
b100 A
b100 f
b100 l
b1 $
1!
1B
#75
0!
0B
#100
b11110 n
bz11110zzzzzzz K
b101 D
b101 x
b101 U
b101 o
b101 y
b101 C
b101 ("
b0 0
b0 w
1;
b11000000000000000000000000000000000000000000000000000000000000010111110 ]
bz11110zzzzzzz J
b0 /
b0 &"
14
b11000000000000000000000000000000000000000000000000000000000000010111110 \
1:
b11 %"
b11 -
b11 |
b1110000000000000000000000000000000000000000000000000000000000000000011110 [
b10 $"
b0 ""
b0 .
b0 !"
b0 *
b0 #"
13
19
b1110000000000000000000000000000000000000000000000000000000000000000011110 Z
b0 L
b0 v
b0 ~
b0zzzzzzzzzz01011110zzzzzzz H
b0 F
b0 u
1b
12
1d
18
b0 _
b0 )
b1110001000000000000000000000000000000000000000000000000000000000000000000000000000000000000000000000000000000001011110 Y
b0 r
b100 p
b11 ^
b0 {
b1110001000000000000000000000000000000000000000000000000000000000000000000000000000000000000000000000000000000001011110 X
b0 E
b100010111100000011 W
b100010111100000011 I
b100010111100000011 z
b100010111100000011 G
b100010111100000011 V
b100010111100000011 m
b1000 k
b1100 M
b1100 h
b1100 j
b1000 A
b1000 f
b1000 l
b10 $
1!
1B
#125
0!
0B
#150
b111 n
bz00111zzzzzzz K
b0 D
b0 x
b1111 U
b1111 o
b1111 y
b1111 0
b1111 w
0;
b0 C
b0 ("
b10000000000000000000000000000011110000000000000000000000000000000000111 ]
bz00111zzzzzzz J
b1111 /
b1111 &"
04
b10000000000000000000000000000011110000000000000000000000000000000000111 \
0:
b110 %"
b110 -
b110 |
b1000000000000000000000000000000011110000000000000000000000000000000000111 [
b0 $"
b1111 ""
b1111 .
b1111 !"
b11 *
b11 #"
03
09
b1000000000000000000000000000000011110000000000000000000000000000000000111 Z
b1111 L
b1111 v
b1111 ~
b0zzzzzzzzzz00000111zzzzzzz H
b1111 F
b1111 u
b11 _
b11 )
0b
02
0d
08
b1000111000000000000000000000000000000000000000000000000000000000000000000000000000000000000000000001111000000000000111 Y
b1111 r
b0 p
b10011 ^
b1111 {
b1000111000000000000000000000000000000000000000000000000000000000000000000000000000000000000000000001111000000000000111 X
b1111 E
b111100000000001110010011 W
b111100000000001110010011 I
b111100000000001110010011 z
b111100000000001110010011 G
b111100000000001110010011 V
b111100000000001110010011 m
b1100 k
b10000 M
b10000 h
b10000 j
b1100 A
b1100 f
b1100 l
b11 $
1!
1B
#175
0!
0B
#200
b1000 n
bz01000zzzzzzz K
b11 U
b11 o
b11 y
b11 0
b11 w
b10000000000000000000000000000000110000000000000000000000000000000001000 ]
bz01000zzzzzzz J
b10000000000000000000000000000000110000000000000000000000000000000001000 \
b11 /
b11 &"
b1000000000000000000000000000000000110000000000000000000000000000000001000 [
b11 ""
b11 .
b11 !"
b1000000000000000000000000000000000110000000000000000000000000000000001000 Z
b11 L
b11 v
b11 ~
b0zzzzzzzzzz00001000zzzzzzz H
b11 F
b11 u
b1000111000000000000000000000000000000000000000000000000000000000000000000000000000000000000000000000011000000000001000 Y
b11 r
b11 {
b1000111000000000000000000000000000000000000000000000000000000000000000000000000000000000000000000000011000000000001000 X
b11 E
b1100000000010000010011 W
b1100000000010000010011 I
b1100000000010000010011 z
b1100000000010000010011 G
b1100000000010000010011 V
b1100000000010000010011 m
b10000 k
b10100 M
b10100 h
b10100 j
b10000 A
b10000 f
b10000 l
b100 $
1!
1B
#225
0!
0B
#250
b1001 n
bz01001zzzzzzz K
b1011 U
b1011 o
b1011 y
b1011 0
b1011 w
b10000000000000000000000000000010110000000000000000000000000000000001001 ]
bz01001zzzzzzz J
b10000000000000000000000000000010110000000000000000000000000000000001001 \
b1011 /
b1011 &"
b1 %"
b1 -
b1 |
b100 $"
b1000000000000000000000000000000010110000000000000000000000000000000001001 [
0,
b10 *
b10 #"
b0 L
b0 v
b0 ~
b1011 ""
b1000000000000000000000000000000010110000000000000000000000000000000001001 Z
b1011 .
b1011 !"
b0zzzzzzzzzz10001001zzzzzzz H
b0 F
b0 u
b1011 O
b1011 }
0`
0+
b10 _
b10 )
b1000100000000000000000000000000000010110000000000000000000000000000000000000000000000000000000000000000000000010001001 Y
b0 r
b101 p
b1011 N
b1011 q
b110011 ^
b0 {
b1000100000000000000000000000000000010110000000000000000000000000000000000000000000000000000000000000000000000010001001 X
b0 E
b101100010010110011 W
b101100010010110011 I
b101100010010110011 z
b101100010010110011 G
b101100010010110011 V
b101100010010110011 m
b10100 k
b11000 M
b11000 h
b11000 j
b10100 A
b10100 f
b10100 l
b101 $
1!
1B
#275
0!
0B
#300
b11100 n
bz11100zzzzzzz K
b1010 U
b1010 o
b1010 y
b1010 0
b1010 w
b10000000000000000000000000000010100000000000000000000000000000000011100 ]
bz11100zzzzzzz J
b10000000000000000000000000000010100000000000000000000000000000000011100 \
b1010 /
b1010 &"
b0 %"
b0 -
b0 |
b111 $"
b1010 R
b1010 '"
b1010 ""
b1010 .
b1010 !"
b1000000000000000000000000000000010100000000000000000000000000000101011100 [
b1010 L
b1010 v
b1010 ~
b0zzzzzzzzzz11111100zzzzzzz H
b110 F
b110 u
b1000000000000000000000000000000010100000000000000000000000000000101011100 Z
b1010 Q
b1010 t
b1000100000000000000000000000000000010110000000000000000000000000000101000000000000000000000000000000110000000011111100 Y
b110 r
b1010 P
b1010 s
b110 {
b1000100000000000000000000000000000010110000000000000000000000000000101000000000000000000000000000000110000000011111100 X
b110 E
b11000101111111000110011 W
b11000101111111000110011 I
b11000101111111000110011 z
b11000101111111000110011 G
b11000101111111000110011 V
b11000101111111000110011 m
b11000 k
b11100 M
b11100 h
b11100 j
b11000 A
b11000 f
b11000 l
b110 $
1!
1B
#325
0!
0B
#350
b1 U
b1 o
b1 y
b1 0
b1 w
b1000 n
bz01000zzzzzzz K
b1 /
b1 &"
b10000000000000000000000000000000010000000000000000000000000000000001000 ]
b10000000000000000000000000000000010000000000000000000000000000000001000 \
b1 ""
b1 .
b1 !"
bz01000zzzzzzz J
b100 %"
b100 -
b100 |
b1000000000000000000000000000000000010000000000000000000000000000101001000 [
b100000000 $"
b1000000000000000000000000000000000010000000000000000000000000000101001000 Z
b100000zzzzzzzzzz00001000zzzzzzz H
b10000000110 F
b10000000110 u
b1000100000000000000000000000000000010110000000000000000000000000000101000000000000000000000010000000110010000000001000 Y
b10000000110 {
b1000100000000000000000000000000000010110000000000000000000000000000101000000000000000000000010000000110010000000001000 X
b10000000110 E
b1000000011000101000010000110011 W
b1000000011000101000010000110011 I
b1000000011000101000010000110011 z
b1000000011000101000010000110011 G
b1000000011000101000010000110011 V
b1000000011000101000010000110011 m
b11100 k
b100000 M
b100000 h
b100000 j
b11100 A
b11100 f
b11100 l
b111 $
1!
1B
#375
0!
0B
#400
b11101 n
bz11101zzzzzzz K
b1100100 U
b1100100 o
b1100100 y
b1100100 0
b1100100 w
b10000000000000000000000000011001000000000000000000000000000000000011101 ]
b101 %"
b101 -
b101 |
bz11101zzzzzzz J
b10000000000000000000000000011001000000000000000000000000000000000011101 \
b1100100 /
b1100100 &"
b1000 $"
b1000000000000000000000000000011001000000000000000000000000000000101011101 [
b1100100 ""
b1000000000000000000000000000011001000000000000000000000000000000101011101 Z
b1100100 .
b1100100 !"
b1zzzzzzzzzz00011101zzzzzzz H
b100110 F
b100110 u
b1010 O
b1010 }
b1000100000000000000000000000000000010100000000000000000000000000000101000000000000000000000000000100110000000100011101 Y
b110 p
b1010 N
b1010 q
b100110 {
b1000100000000000000000000000000000010100000000000000000000000000000101000000000000000000000000000100110000000100011101 X
b100110 E
b10011000110000111010110011 W
b10011000110000111010110011 I
b10011000110000111010110011 z
b10011000110000111010110011 G
b10011000110000111010110011 V
b10011000110000111010110011 m
b100000 k
b100100 M
b100100 h
b100100 j
b100000 A
b100000 f
b100000 l
b1000 $
1!
1B
#425
0!
0B
#450
b11110 n
bz11110zzzzzzz K
b10100101 U
b10100101 o
b10100101 y
b10100101 0
b10100101 w
bz11110zzzzzzz J
b10000000000000000000000000101001010000000000000000000000000000000011110 ]
b1111 R
b1111 '"
b10000000000000000000000000101001010000000000000000000000000000000011110 \
b10100101 /
b10100101 &"
b1000000000000000000000000000101001010000000000000000000000000000111111110 [
b1111 L
b1111 v
b1111 ~
b10100101 ""
b10100101 .
b10100101 !"
b1zzzzzzzzzz00011110zzzzzzz H
b100111 F
b100111 u
b1000000000000000000000000000101001010000000000000000000000000000111111110 Z
b1111 Q
b1111 t
b1011 O
b1011 }
b1000100000000000000000000000000000010110000000000000000000000000000111100000000000000000000000000100111000000100011110 Y
b111 r
b1111 P
b1111 s
b1001 p
b1011 N
b1011 q
b100111 {
b1000100000000000000000000000000000010110000000000000000000000000000111100000000000000000000000000100111000000100011110 X
b100111 E
b10011101001000111100110011 W
b10011101001000111100110011 I
b10011101001000111100110011 z
b10011101001000111100110011 G
b10011101001000111100110011 V
b10011101001000111100110011 m
b100100 k
b101000 M
b101000 h
b101000 j
b100100 A
b100100 f
b100100 l
b1001 $
1!
1B
#475
0!
0B
#500
b101 n
bz00101zzzzzzz K
b10000 U
b10000 o
b10000 y
b10000 0
b10000 w
0?
b100000000000000000000000000000000000000101 ]
bz00101zzzzzzz J
b10000 /
b10000 &"
17
b100000000000000000000000000000000000000101 \
0>
b11 %"
b11 -
b11 |
b10 $"
b1011 R
b1011 '"
b10000 ""
b10000 .
b10000 !"
1,
b0 *
b0 #"
16
0=
b1000000000000000000000000000100000000000000000000000000000000101100101 [
b101 L
b101 v
b101 ~
b0zzzzzzzzzz01000101zzzzzzz H
b101 F
b101 u
b1000000000000000000000000000100000000000000000000000000000000101100101 Z
b1011 Q
b1011 t
0e
0<
1c
15
1`
1+
b0 _
b0 )
b1001000000000000000000000000000010110000000000000000000000000000101100000000000000000000000000000101000000001000101 Y
b1001 r
b1011 P
b1011 s
b101 p
b100011 ^
b101 {
b1001000000000000000000000000000010110000000000000000000000000000101100000000000000000000000000000101000000001000101 X
b101 E
b100100101010001010100011 W
b100100101010001010100011 I
b100100101010001010100011 z
b100100101010001010100011 G
b100100101010001010100011 V
b100100101010001010100011 m
b101000 k
b101100 M
b101100 h
b101100 j
b101000 A
b101000 f
b101000 l
b1010 $
1!
1B
#525
0!
0B
#550
b0 n
bz00000zzzzzzz K
1?
b0 U
b0 o
b0 y
b0 0
b0 w
bz00000zzzzzzz J
07
1>
b10000000000000000000000000000000000000000000000000000000000000000000000 ]
b0 $"
b0 R
b0 '"
b10000000000000000000000000000000000000000000000000000000000000000000000 \
b0 /
b0 &"
0,
b10 *
b10 #"
06
1=
b0 L
b0 v
b0 ~
b1000000000000000000000000000000000000000000000000000000000000000000000000 [
b0 ""
b0 .
b0 !"
b0zzzzzzzzzz00000000zzzzzzz H
b0 F
b0 u
b1000000000000000000000000000000000000000000000000000000000000000000000000 Z
b0 Q
b0 t
b0 O
b0 }
0`
0+
b10 _
b10 )
1e
1<
0c
05
b1000100000000000000000000000000000000000000000000000000000000000000000000000000000000000000000000000000000000000000000 Y
b0 r
b0 P
b0 s
b0 p
b0 N
b0 q
b0 ^
b0 {
b1000100000000000000000000000000000000000000000000000000000000000000000000000000000000000000000000000000000000000000000 X
b0 E
b0 W
b0 I
b0 z
b0 G
b0 V
b0 m
b101100 k
b110000 M
b110000 h
b110000 j
b101100 A
b101100 f
b101100 l
b1011 $
1!
1B
#575
0!
0B
#600
b110000 k
b110100 M
b110100 h
b110100 j
b110000 A
b110000 f
b110000 l
b1100 $
1!
1B
#625
0!
0B
#650
b110100 k
b111000 M
b111000 h
b111000 j
b110100 A
b110100 f
b110100 l
b1101 $
1!
1B
#675
0!
0B
#700
b111000 k
b111100 M
b111100 h
b111100 j
b111000 A
b111000 f
b111000 l
b1110 $
1!
1B
#725
0!
0B
#750
b111100 k
b1000000 M
b1000000 h
b1000000 j
b111100 A
b111100 f
b111100 l
b1111 $
1!
1B
#775
0!
0B
#800
b1000000 k
b1000100 M
b1000100 h
b1000100 j
b1000000 A
b1000000 f
b1000000 l
b10000 $
1!
1B
#825
0!
0B
#850
b1000100 k
b1001000 M
b1001000 h
b1001000 j
b1000100 A
b1000100 f
b1000100 l
b10001 $
1!
1B
#875
0!
0B
#900
b1001000 k
b1001100 M
b1001100 h
b1001100 j
b1001000 A
b1001000 f
b1001000 l
b10010 $
1!
1B
#925
0!
0B
#950
b1001100 k
b1010000 M
b1010000 h
b1010000 j
b1001100 A
b1001100 f
b1001100 l
b10011 $
1!
1B
#975
0!
0B
#1000
b1010000 k
b1010100 M
b1010100 h
b1010100 j
b1010000 A
b1010000 f
b1010000 l
b10100 $
1!
1B
#1025
0!
0B
#1050
b1010100 k
b1011000 M
b1011000 h
b1011000 j
b1010100 A
b1010100 f
b1010100 l
b10101 $
1!
1B
#1075
0!
0B
#1100
b1011000 k
b1011100 M
b1011100 h
b1011100 j
b1011000 A
b1011000 f
b1011000 l
b10110 $
1!
1B
#1125
0!
0B
#1150
b1011100 k
b1100000 M
b1100000 h
b1100000 j
b1011100 A
b1011100 f
b1011100 l
b10111 $
1!
1B
#1175
0!
0B
#1200
b1100000 k
b1100100 M
b1100100 h
b1100100 j
b1100000 A
b1100000 f
b1100000 l
b11000 $
1!
1B
#1225
0!
0B
#1250
b1100100 k
b1101000 M
b1101000 h
b1101000 j
b1100100 A
b1100100 f
b1100100 l
b11001 $
1!
1B
#1275
0!
0B
#1300
b1101000 k
b1101100 M
b1101100 h
b1101100 j
b1101000 A
b1101000 f
b1101000 l
b11010 $
1!
1B
#1325
0!
0B
#1350
b1101100 k
b1110000 M
b1110000 h
b1110000 j
b1101100 A
b1101100 f
b1101100 l
b11011 $
1!
1B
#1375
0!
0B
#1400
b1110000 k
b1110100 M
b1110100 h
b1110100 j
b1110000 A
b1110000 f
b1110000 l
b11100 $
1!
1B
#1425
0!
0B
#1450
b1110100 k
b1111000 M
b1111000 h
b1111000 j
b1110100 A
b1110100 f
b1110100 l
b11101 $
1!
1B
#1475
0!
0B
#1500
b1111000 k
b1111100 M
b1111100 h
b1111100 j
b1111000 A
b1111000 f
b1111000 l
b11110 $
1!
1B
#1525
0!
0B
#1550
b1111100 k
b10000000 M
b10000000 h
b10000000 j
b1111100 A
b1111100 f
b1111100 l
b11111 $
1!
1B
#1575
0!
0B
#1600
b10000000 k
b10000100 M
b10000100 h
b10000100 j
b10000000 A
b10000000 f
b10000000 l
b100000 $
1!
1B
#1625
0!
0B
#1650
b10000100 k
b10001000 M
b10001000 h
b10001000 j
b10000100 A
b10000100 f
b10000100 l
b100001 $
1!
1B
#1675
0!
0B
#1700
b10001000 k
b10001100 M
b10001100 h
b10001100 j
b10001000 A
b10001000 f
b10001000 l
b100010 $
1!
1B
#1725
0!
0B
#1750
b10001100 k
b10010000 M
b10010000 h
b10010000 j
b10001100 A
b10001100 f
b10001100 l
b100011 $
1!
1B
#1775
0!
0B
#1800
b10010000 k
b10010100 M
b10010100 h
b10010100 j
b10010000 A
b10010000 f
b10010000 l
b100100 $
1!
1B
#1825
0!
0B
#1850
b10010100 k
b10011000 M
b10011000 h
b10011000 j
b10010100 A
b10010100 f
b10010100 l
b100101 $
1!
1B
#1875
0!
0B
#1900
b10011000 k
b10011100 M
b10011100 h
b10011100 j
b10011000 A
b10011000 f
b10011000 l
b100110 $
1!
1B
#1925
0!
0B
#1950
b10011100 k
b10100000 M
b10100000 h
b10100000 j
b10011100 A
b10011100 f
b10011100 l
b100111 $
1!
1B
#1975
0!
0B
#2000
b10100000 k
b10100100 M
b10100100 h
b10100100 j
b10100000 A
b10100000 f
b10100000 l
b101000 $
1!
1B
#2025
0!
0B
#2050
b10100100 k
b10101000 M
b10101000 h
b10101000 j
b10100100 A
b10100100 f
b10100100 l
b101001 $
1!
1B
#2075
0!
0B
#2100
b10101000 k
b10101100 M
b10101100 h
b10101100 j
b10101000 A
b10101000 f
b10101000 l
b101010 $
1!
1B
#2125
0!
0B
#2150
b10101100 k
b10110000 M
b10110000 h
b10110000 j
b10101100 A
b10101100 f
b10101100 l
b101011 $
1!
1B
#2175
0!
0B
#2200
b10110000 k
b10110100 M
b10110100 h
b10110100 j
b10110000 A
b10110000 f
b10110000 l
b101100 $
1!
1B
#2225
0!
0B
#2250
b10110100 k
b10111000 M
b10111000 h
b10111000 j
b10110100 A
b10110100 f
b10110100 l
b101101 $
1!
1B
#2275
0!
0B
#2300
b10111000 k
b10111100 M
b10111100 h
b10111100 j
b10111000 A
b10111000 f
b10111000 l
b101110 $
1!
1B
#2325
0!
0B
#2350
b10111100 k
b11000000 M
b11000000 h
b11000000 j
b10111100 A
b10111100 f
b10111100 l
b101111 $
1!
1B
#2375
0!
0B
#2400
b11000000 k
b11000100 M
b11000100 h
b11000100 j
b11000000 A
b11000000 f
b11000000 l
b110000 $
1!
1B
#2425
0!
0B
#2450
b11000100 k
b11001000 M
b11001000 h
b11001000 j
b11000100 A
b11000100 f
b11000100 l
b110001 $
1!
1B
#2475
0!
0B
#2500
b11001000 k
b11001100 M
b11001100 h
b11001100 j
b11001000 A
b11001000 f
b11001000 l
b110010 $
1!
1B
#2525
0!
0B
#2550
b11001100 k
b11010000 M
b11010000 h
b11010000 j
b11001100 A
b11001100 f
b11001100 l
b110011 $
1!
1B
#2575
0!
0B
#2600
b11010000 k
b11010100 M
b11010100 h
b11010100 j
b11010000 A
b11010000 f
b11010000 l
b110100 $
1!
1B
#2625
0!
0B
#2650
b11010100 k
b11011000 M
b11011000 h
b11011000 j
b11010100 A
b11010100 f
b11010100 l
b110101 $
1!
1B
#2675
0!
0B
#2700
b11011000 k
b11011100 M
b11011100 h
b11011100 j
b11011000 A
b11011000 f
b11011000 l
b110110 $
1!
1B
#2725
0!
0B
#2750
b11011100 k
b11100000 M
b11100000 h
b11100000 j
b11011100 A
b11011100 f
b11011100 l
b110111 $
1!
1B
#2775
0!
0B
#2800
b11100000 k
b11100100 M
b11100100 h
b11100100 j
b11100000 A
b11100000 f
b11100000 l
b111000 $
1!
1B
#2825
0!
0B
#2850
b11100100 k
b11101000 M
b11101000 h
b11101000 j
b11100100 A
b11100100 f
b11100100 l
b111001 $
1!
1B
#2875
0!
0B
#2900
b11101000 k
b11101100 M
b11101100 h
b11101100 j
b11101000 A
b11101000 f
b11101000 l
b111010 $
1!
1B
#2925
0!
0B
#2950
b11101100 k
b11110000 M
b11110000 h
b11110000 j
b11101100 A
b11101100 f
b11101100 l
b111011 $
1!
1B
#2975
0!
0B
#3000
b11110000 k
b11110100 M
b11110100 h
b11110100 j
b11110000 A
b11110000 f
b11110000 l
b111100 $
1!
1B
#3025
0!
0B
#3050
b11110100 k
b11111000 M
b11111000 h
b11111000 j
b11110100 A
b11110100 f
b11110100 l
b111101 $
1!
1B
#3075
0!
0B
#3100
b11111000 k
b11111100 M
b11111100 h
b11111100 j
b11111000 A
b11111000 f
b11111000 l
b111110 $
1!
1B
#3125
0!
0B
#3150
b11111100 k
b100000000 M
b100000000 h
b100000000 j
b11111100 A
b11111100 f
b11111100 l
b111111 $
1!
1B
#3175
0!
0B
#3200
b100000000 k
b100000100 M
b100000100 h
b100000100 j
b100000000 A
b100000000 f
b100000000 l
b1000000 $
1!
1B
#3225
0!
0B
#3250
b100000100 k
b100001000 M
b100001000 h
b100001000 j
b100000100 A
b100000100 f
b100000100 l
1!
1B
